
# united_cantons_reform = {
# 	icon = "united_cantons_reform"
# 	allow_normal_conversion = yes
# 	modifiers = {
# 		governing_capacity = -50
# 		free_policy = 1
# 		mercenary_manpower = 0.5
# 		max_absolutism = -30
# 	}
# 	valid_for_nation_designer = yes
# 	nation_designer_cost = 40
# 	legacy_equivalent = united_cantons_legacy
# 	potential = {
# 		NOT = { map_setup = map_setup_random }
# 		OR = {
# 			primary_culture = swiss
# 			have_had_reform = united_cantons_reform
# 		}
# 	}
# 	ai = {
# 		factor = 10 #unique
		
# 		modifier = {
# 			factor = 2
# 			NOT = {
# 				num_of_cities = 11
# 			}
# 		}
		
# 		modifier = {
# 			factor = 0
# 			is_subject = yes
# 		}
# 	}
# }

parliamentary_reform = {
	icon = "judge"
	potential = {	#Anbennar
		OR = {
			NOT = { culture_group = dwarven }
			NOT = { capital_scope = { continent = serpentspine } }
		}
		NOT = { has_reform = hobgoblin_stratocracy_reform }
		NOT = { has_reform = azkare_court }
		NOT = { has_reform = sunrise_court_reform }
		NOT = { has_reform = nezkaru_council_reform }
		NOT = { has_reform = corvurian_midnight_reform }
		NOT = { has_reform = elikhander_autocracy_reform }
		NOT = { has_reform = teplinbasiet_arena_kingdom_reform }
		NOT = { has_reform = ogre_kingdom }
		NOT = { has_reform = mengotsa }
		NOT = { has_reform = ogre_empire }
		NOT = { has_reform = great_ogre_horde }
		NOT = { has_reform = golden_republic_reform }
	}
	modifiers = {
		global_unrest = -1
	}
	
	trigger = {		
		if = {
			limit = { has_dlc = "Common Sense" }
			OR = {
				NOT = { has_estate = estate_nobles }
				crown_stronger_than_estate = { estate = estate_nobles }
				NOT = { has_estate = estate_uppercastes }
				crown_stronger_than_estate = { estate = estate_uppercastes }
				has_reform = parliamentary_reform
			}
		}
		if = {
			limit = { has_dlc = "Res Publica" }
			NOT = { has_reform = elective_monarchy }
		}
		if = {
			limit = { NOT = { has_dlc = "Mandate of Heaven" } }
			NOT = { has_reform = celestial_empire }
			NOT = { is_revolutionary_republic_trigger = yes }
		}
		if = {
			limit = { has_reform = krak_clan_council }
			NOT = { has_reform = krak_clan_council }
		}
		if = {
			limit = { tag = H78 }
			NOT = { tag = H78 }
		}
		if = {
			limit = { OR = { tag = Y96 tag = Y98 } }
			custom_trigger_tooltip = {
				tooltip = Y91_horde_heritage
				NOT = {
					has_country_modifier = Y91_horde_heritage_1
					has_country_modifier = Y91_horde_heritage_2
				}
			}
		}
	}

	conditional = {
		allow = { has_dlc = "Common Sense" }
		has_parliament = yes
		custom_attributes = {
			disables_nobility = yes
			blocked_call_diet = yes
		}
	}
	ai = {
		factor = 1
		modifier = {
			factor = 0.5
			NOT = { technology_group = tech_cannorian }
			NOT = { technology_group = tech_gerudian }
		}
		modifier = {
			factor = 0.5
			NOT = { technology_group = tech_cannorian }
			NOT = { technology_group = tech_gerudian }
			NOT = {
				any_neighbor_country = {
					OR = {
						technology_group = tech_cannorian
						technology_group = tech_gerudian
					}
				}
			}
		}
		modifier = {
			factor = 0
			OR = {
				# has_reform = mughal_government
				has_reform = jadd_nobility
				has_reform = celestial_empire
				#religion = confucianism
				religion_group = faithless
			}
		}
	}
	post_removed_effect = {
		give_estate_land_share_init = { estate = estate_nobles }
	}
}

# Upgraded Indian estate reforms

permanent_marathas_council_reform = {
	icon = "noble_indian"
	allow_normal_conversion = yes
	potential = {
		has_dlc = "Dharma"
		has_estate = estate_maratha
		technology_group = indian
	}
	modifiers = {
		leader_land_shock = 1
		maratha_influence_modifier = 0.1
		maratha_loyalty_modifier = 0.05
		nobles_influence_modifier = -0.1
		nobles_loyalty_modifier = -0.05
	}
	custom_attributes = {
		maratha_general_interaction = yes
	}
	ai = {
		factor = 3
		modifier = {
			factor = 0.1
			estate_influence = {
				estate = estate_maratha
				influence = 90
			}			
		}
	}
}

governmental_purbias_register_reform = {
	icon = "rajput_kingdom"
	potential = {
		has_dlc = "Dharma"
		has_estate = estate_rajput
		technology_group = indian
	}
	modifiers = {
		recover_army_morale_speed = 0.05
		rajput_influence_modifier = 0.1
		rajput_loyalty_modifier = 0.05
		nobles_influence_modifier = -0.1
		nobles_loyalty_modifier = -0.05
	}
	custom_attributes = {
		better_purbias_interaction = yes
	}
	effect = {
		if = {
			limit = {
				has_country_modifier = look_up_purbias
			}
			remove_country_modifier = look_up_purbias
			add_country_modifier = {
				name = look_up_purbias_upgraded
				duration = -1
			}
		}
	}
	removed_effect = {
		if = {
			limit = {
				has_country_modifier = look_up_purbias_upgraded
			}
			remove_country_modifier = look_up_purbias_upgraded
			add_country_modifier = {
				name = look_up_purbias
				duration = -1
			}
		}
	}
	ai = {
		factor = 3
		modifier = {
			factor = 0.1
			estate_influence = {
				estate = estate_rajput
				influence = 90
			}			
		}
	}
}

# for Spain

council_of_the_indies_reform = {
	icon = "paper_money_map"
	allow_normal_conversion = yes
	potential = {
		has_dlc = "Golden Century"
		culture_group = iberian
		capital_scope = {
			region = iberia_region
		}
	}
	trigger = {
		num_of_colonists = 1
		culture_group = iberian
		capital_scope = {
			region = iberia_region
		}
	}
	modifiers = {
		global_tariffs = 0.2
		treasure_fleet_income = 0.2
	}
	ai = {
		factor = 2
	}
}

penal_colonies_reform = {
	icon = "merchant_ship"
	allow_normal_conversion = yes
	potential = {
		num_of_colonists = 1
		has_dlc = "Golden Century"
		capital_scope = {
			NOT = {
				OR = {
					continent = north_america
					continent = south_america
					continent = new_world
					continent = oceania
				}
			}
		}
	}
	trigger = {
		num_of_colonists = 1
		num_of_continents = 2
	}
	modifiers = {
		expel_minorities_cost = -0.3
	}
	ai = {
		factor = 0.1
	}
}

# Holy State for Jerusalem
holy_state_reform = {
	allow_normal_conversion = no
	legacy_equivalent = holy_state_legacy
	icon = "holy_state_reform"
	valid_for_nation_designer = yes
	nation_designer_trigger = {
		religion = catholic
	}
	potential = {
		OR = {
			AND = {
				has_country_modifier = sisters_takeover
				NOT = { map_setup = map_setup_random }
			}
			AND = {
				is_playing_custom_nation = yes
				have_had_reform = holy_state_reform
			}
		}
	}
	trigger = {
		religion = catholic
	}
	nation_designer_cost = 50
	modifiers = {
		cb_on_religious_enemies = yes
		manpower_recovery_speed = 0.15
	}
	rulers_can_be_generals = yes
	heirs_can_be_generals = yes
	ai = {
		factor = 10
	}
}

#Anbennar
dark_lordship = {
	icon = "celestial_empire"
	potential = {
		#if = {
			OR = {
				culture = lich
				has_ruler_flag = is_a_secret_lich
				has_ruler_flag = is_a_exposed_lich
				
				#need more but for now this is fine, can prob just say potential is if you're given it
			}
		#}
	}

	modifiers = {
		global_unrest = -3
		discipline = 0.05
		diplomatic_reputation = -3
	}
	
	#This also enables the estate_acolytes or something
	
	heir = yes	#Dark Lords need apprentices, and republics cant have heirs so
	queen = no
	royal_marriage = no
	
	lock_level_when_selected = yes	#dunno what this does, does it prevent me changing via events too?
	allow_normal_conversion = no
	
	custom_attributes = {
		locked_government_type = yes
	}
}

#tier 5 - parliament
assembly_of_holds_reform = {
	icon = "assembly_hall"
	allow_normal_conversion = yes
	potential = {
		culture_group = dwarven
		capital_scope = { 
			continent = serpentspine 
		}
		NOT = { has_reform = amlharaz_reform }
	}
	trigger = {
		OR = {
			NOT = { has_estate = estate_nobles }
			crown_stronger_than_estate = { estate = estate_nobles }
			has_reform = assembly_of_holds_reform
		}
		if = {
			limit = { NOT = { has_dlc = "Mandate of Heaven" } }
			NOT = { has_reform = celestial_empire }
			NOT = { is_revolutionary_republic_trigger = yes }
		}
		NOT = { has_reform = krak_clan_council }
		if = {
			limit = { tag = H78 }
			NOT = { tag = H78 }
		}
	}
	modifiers = {
		#min_autonomy = -20
		global_autonomy = -0.1 #autonomy change here for palceholder until holds fixed
	}
	conditional = {
		allow = { has_dlc = "Common Sense" }
		has_parliament = yes
		custom_attributes = {
			blocked_call_diet = yes
			disables_nobility = yes
		}
	}
}

#tier 5 - parliament
amlharaz_reform = {
	icon = "commander_king_reform"
	allow_normal_conversion = no
	lock_level_when_selected = yes
	potential = {
		culture_group = dwarven
		capital_scope = { 
			continent = serpentspine 
		}
	}
	trigger = {
		OR = {
			tag = I24
			is_subject_of_type = amlharaz_hold
		}
	}
	ai = { factor = 1000 }
	modifiers = {
		max_absolutism = -15
		diplomats = 2
	}
	conditional = {
		allow = { has_dlc = "Common Sense" }
		has_parliament = yes
		custom_attributes = {
			blocked_call_diet = yes
			disables_nobility = yes
		}
	}
}

#tier 2
troll_forebearer_teachings = {
	icon = "all_under_tengri_reform"
	allow_normal_conversion = yes
	lock_level_when_selected = no
	potential = {
		OR = {
			has_reform = troll_forebearer_teachings
			have_had_reform = troll_forebearer_teachings
		}
	}
	trigger = {
	primary_culture = fjord_troll
		}
	modifiers = {
		same_culture_advisor_cost = -0.15
		manpower_in_true_faith_provinces= 0.20
	}
}

#eordand
eordand_academical_realm = {
	icon = "man_on_podium"
	allow_normal_conversion = yes
	lock_level_when_selected = no
	potential = {
		OR = {
			has_reform = eordand_academical_realm
			have_had_reform = eordand_academical_realm
		}
	}
	trigger = {
		religion = spring_court
	}
	modifiers = {
		idea_cost = -0.1
		global_institution_spread = 0.25
		embracement_cost = -0.2
		advisor_cost = -0.1
	}
}

eordand_sunlit_thalassocracy = {
	icon = "merchant_ship"
	allow_normal_conversion = yes
	lock_level_when_selected = no
	potential = {
		OR = {
			has_reform = eordand_sunlit_thalassocracy
			have_had_reform = eordand_sunlit_thalassocracy
		}
	}
	trigger = {
		religion = summer_court
	}
	modifiers = {
		naval_morale = 0.1
		own_coast_naval_combat_bonus = 1
		global_trade_power = 0.1
		navy_tradition = 1
	}
}

eordand_legionary_command = {
	icon = "soldiers_4"
	allow_normal_conversion = yes
	lock_level_when_selected = no
	potential = {
		OR = {
			has_reform = eordand_legionary_command
			have_had_reform = eordand_legionary_command
		}
	}
	trigger = {
		religion = autumn_court
	}
	modifiers = {
		army_tradition = 0.5
		land_morale = 0.1
		manpower_recovery_speed = 0.1
	}
}

eordand_frozen_heart = {
	icon = "church_and_state_reform"
	allow_normal_conversion = yes
	lock_level_when_selected = no
	potential = {
		OR = {
			has_reform = eordand_frozen_heart
			have_had_reform = eordand_frozen_heart
		}
	}
	trigger = {
		religion = winter_court
	}
	modifiers = {
		defensiveness = 0.2
		global_spy_defence = 0.25
		diplomatic_reputation = 2
	}
}

eordand_lord_regent_domanrod = {
	icon = "council_of_the_ancients"
	allow_normal_conversion = yes
	lock_level_when_selected = no
	potential = {
		OR = {
			has_reform = eordand_lord_regent_domanrod
			have_had_reform = eordand_lord_regent_domanrod
		}
	}
	trigger = {
		religion = eordellon
	}
	modifiers = {
		governing_capacity_modifier = 0.1
		global_unrest = -2
		max_absolutism = 10
	}
}

secret_societies_inf = {
	icon = "united_cantons_reform"
	allow_normal_conversion = no
	lock_level_when_selected = yes
	potential = {
		has_reform = secret_societies_inf
	}
	trigger = {
		has_reform = secret_societies_inf
	}
	modifiers = {
		spy_offence = 0.2
		yearly_corruption = 0.1
	}
}

mystery_societies_inf = {
	icon = "united_cantons_reform"
	allow_normal_conversion = no
	lock_level_when_selected = yes
	potential = {
		has_reform = mystery_societies_inf
	}
	trigger = {
		has_reform = mystery_societies_inf
	}
	modifiers = {
		culture_conversion_cost = -0.25
		autonomy_change_time = -0.25
	}
}

#tier 1
infernal_autocracy = {
	icon = "celestial_empire"
	allow_normal_conversion = no
	lock_level_when_selected = yes
	fixed_rank = 3
	potential = {
		has_reform = infernal_autocracy
	}
	trigger = {
		has_reform = infernal_autocracy
	}
	modifiers = {
		max_absolutism = 20
		establish_order_cost = -0.1
	}
	custom_attributes = {
		locked_government_type = yes
	}
	factions = {
		inf_ildran_hedine
		inf_triad
		inf_kaz_mesner
	}
}

ravenmarch_triumvirate_court = {
	icon = "ravenmarch_triumvirate"
	allow_normal_conversion = no
	potential = {
		OR = {
			has_reform = ravenmarch_triumvirate_court
			have_had_reform = ravenmarch_triumvirate_court
		}
		OR = {
			tag = B48
			tag = Z07
		}
	}
	lock_level_when_selected = yes
	valid_for_nation_designer = no
	
	modifiers = {
		stability_cost_modifier = -0.1
		global_missionary_strength = 0.01
	}
}