
sugamber_1_missions = {
	slot = 1 
	generic = no
	ai = yes 
	has_country_shield = yes
	potential = { tag = A48 }
	
	sugamber_lilac_wars_consolidate = {
		icon = medici_bank_ledgers
		position = 1
		required_missions = {  }
		
		provinces_to_highlight = {
			OR = {
				province_id = 410 #Hawkshot
				province_id = 411 #Irmathmas
				province_id = 315 #Countsbridge
				province_id = 913 #Gnollsgate
			}
			NOT = { owned_by = ROOT }
		}
		
		trigger = {
			410 = {
				owned_by = ROOT
			}
			411 = {
				owned_by = ROOT
			}
			315 = {
				owned_by = ROOT
			}
			913 = {
				owned_by = ROOT
			}
		}
		
		effect = {
			if = {
				limit = { ai = no }
				add_adm_power = -300
			}
			410 = {
				add_core = ROOT
				add_province_modifier = {
					name = "faster_integration"
					duration = 7300
				}
			}
			411 = {
				add_core = ROOT
				add_province_modifier = {
					name = "faster_integration"
					duration = 7300
				}
			}
			315 = {
				add_core = ROOT
				add_province_modifier = {
					name = "faster_integration"
					duration = 7300
				}
			}
			913 = {
				add_core = ROOT
				add_province_modifier = {
					name = "faster_integration"
					duration = 7300
				}
			}
		}
	}
	
	sugamber_succession_resolved = {
		icon = empower_the_junkers
		position = 2
		required_missions = {  }
		
		provinces_to_highlight = { }
		
		trigger = {
			OR = {
				custom_trigger_tooltip = {
					tooltip = sugamber_succession_resolved_trigger_tt
					has_country_flag = had_sugamber_succession_war
				}
				is_year = 1500
			}
		}
		
		effect = {
			add_country_modifier = {
				name = sugamber_undisputed_dynasty
				duration = 18250
			}
		}
	}
	
	sugamber_ascension = {
		icon = mission_intervene_in_castile
		position = 3
		required_missions = {
			sugamber_succession_resolved
			sugamber_bisan_partition
		}
		
		trigger = {
			total_development = emperor
			prestige = emperor
		}
		
		effect = {
			if = {
				limit = {
					OR = {
						Z02 = { is_vassal = yes }
						Z02 = { exists = no }
					}
				}
				add_dip_power = 200
			}
			else = {
				vassalize = Z02
			}
			mountainway_area = {
				limit = {
					NOT = { is_core = ROOT }
					NOT = { owned_by = ROOT }
				}
				add_permanent_claim = ROOT
			}
		}
	}
	
	sugamber_above_lions_den = {
		icon = mission_turning_the_tables
		position = 4
		required_missions = { sugamber_ascension }
		
		provinces_to_highlight = {
			area = mountainway_area
			NOT = { country_or_non_sovereign_subject_holds = ROOT }
		}
		
		trigger = {	
			mountainway_area = {
				type = all
				country_or_non_sovereign_subject_holds = ROOT
			}
		}
		
		effect = {
			lorbet_area = {
				limit = { 
					NOT = { is_core = ROOT }
					NOT = { owned_by = ROOT }
				}
				add_permanent_claim = ROOT
			}
			hapiande_area = {
				limit = { 
					NOT = { is_core = ROOT }
					NOT = { owned_by = ROOT }
				}
				add_permanent_claim = ROOT
			}
		}
	}
	
	sugamber_into_lions_den = {
		icon = protect_against_austria
		position = 5
		required_missions = { sugamber_above_lions_den }
		
		provinces_to_highlight = { 
			OR = {
				area = lorbet_area
				area = hapiande_area
			}
			NOT = { country_or_non_sovereign_subject_holds = ROOT }
		}
		
		trigger = {	
			lorbet_area = {
				type = all
				country_or_non_sovereign_subject_holds = ROOT
			}
			hapiande_area = {
				type = all
				country_or_non_sovereign_subject_holds = ROOT
			}
		}
		
		effect = {
			busilar_area = {
				limit = { 
					NOT = { is_core = ROOT }
					NOT = { owned_by = ROOT }
				}
				add_permanent_claim = ROOT
			}
			busilari_straits_area = {
				limit = { 
					NOT = { is_core = ROOT }
					NOT = { owned_by = ROOT }
				}
				add_permanent_claim = ROOT
			}
		}
	}
	
	sugamber_stone_lions_demise = {
		icon = mission_rb_conquer_scotland
		position = 6
		required_missions = { sugamber_into_lions_den }
		
		provinces_to_highlight = {
			OR = {
				area = busilar_area
				area = busilari_straits_area
			}
			NOT = { country_or_non_sovereign_subject_holds = ROOT }
		}
		
		trigger = {	
			busilar_area = {
				type = all
				country_or_non_sovereign_subject_holds = ROOT
			}
			busilari_straits_area = {
				type = all
				country_or_non_sovereign_subject_holds = ROOT
			}
		}
		
		effect = {
			add_country_modifier = {
				name = sugamber_busilar_conquered
				duration = 7300
			}
			365 = {
				add_trade_modifier = {
					who = ROOT
					duration = 7300
					power = 25
					key = SUGAMBER_TRADE
				}
			}
		}
	}
	
	sugamber_lion_tamed = {
		icon = la_marseillaise
		position = 7
		required_missions = { sugamber_stone_lions_demise }
		
		provinces_to_highlight = {
			region = businor_region
			NOT = { area = isle_of_tef_area }
			NOT = { area = khenak_area }
			is_part_of_hre = no
		}
		
		trigger = {
			custom_trigger_tooltip = {
				tooltip = sugamber_lion_tamed_trigger_tt
				businor_region = {
					type = all
					if = {
						limit = {
							NOT = { area = isle_of_tef_area }
							NOT = { area = khenak_area }
						}
						is_part_of_hre = yes
					}
				}
			}
		}
		
		effect = {
			businor_region = {
				add_province_modifier = {
					name = "faster_integration"
					duration = 7300
				}
			}
			add_imperial_influence = 10
		}
	}
	
	sugamber_lionsbane = {
		icon = mission_defeat_mewar
		position = 9
		required_missions = {
			sugamber_lion_tamed
			sugamber_claim_the_marquisate
		}
		
		provinces_to_highlight = {
			OR = {
				AND = {
					owned_by = A29
					OR = {
						superregion = western_cannor_superregion
						superregion = escann_superregion
					}
				}
				AND = {
					owned_by = A72
					OR = {
						superregion = western_cannor_superregion
						superregion = escann_superregion
					}
				}
			}
		}
		
		trigger = {
			prestige = 50
			custom_trigger_tooltip = {
				tooltip = sugamber_lions_bane_trigger
				NOT = {
					A29 = {
						any_owned_province = {
							OR = {
								superregion = western_cannor_superregion
								superregion = escann_superregion
							}
						}
					}
				}
				NOT = {
					A72 = {
						any_owned_province = {
							OR = {
								superregion = western_cannor_superregion 
								superregion = escann_superregion
							}
						}
					}
				}
			}
		}
		
		effect = {
			add_ruler_modifier = {
				name = sugamber_lionsbane
				duration = -1
			}
			change_mil = 2
		}
	}
	
	sugamber_wexonard_protector = {
		icon = mission_autocratic_rule
		position = 11
		required_missions = { sugamber_hegemony_over_the_arannese }
		
		provinces_to_highlight = { }
		
		trigger = {
			A30 = {
				is_emperor = no
			}
			army_strength = {
				who = A30
				value = 2
			}
			variable_arithmetic_trigger = {
				custom_tooltip = sugamber_dev_3_times_wex
				export_to_variable = {
					which = our_total_development
					value = trigger_value:total_development
				}
				export_to_variable = {
					which = wex_total_development
					value = trigger_value:total_development
					who = A30
				}
				multiply_variable = { which = wex_total_development value = 3 }
				
				check_variable = { which = our_total_development which = wex_total_development }
			}
		}
		
		effect = {
			add_casus_belli = {
				target = A30
				type = cb_claim_throne_sugamber
				months = 120
			}
		}
	}
	
	sugamber_twin_stars = {
		icon = the_great_city_of_buda
		position = 13
		required_missions = { sugamber_integrate_arannese_people }
		
		provinces_to_highlight = { 
			OR = {
				province_id = 919
				province_id = 904
			}
			OR = {
				NOT = { owned_by = ROOT }
				NOT = { is_core = ROOT }
				NOT = { development = 30 }
			}
		}
		
		trigger = {	
			919 = {
				is_core = ROOT
				owned_by = ROOT
				development = 30
			}
			904 = {
				is_core = ROOT
				owned_by = ROOT
				development = 30
			}
		}
		
		effect = {
			919 = {
				add_permanent_province_modifier = {
					name = sugamber_twin_stars_province
					duration = 7300
				}
			}
			904 = {
				add_permanent_province_modifier = {
					name = sugamber_twin_stars_province
					duration = 7300
				}
			}
		}
	}
}

sugamber_2_missions = { 
	slot = 2
	generic = no
	ai = yes 
	has_country_shield = yes
	potential = { tag = A48 }
	
	sugamber_rose_party_allies = {
		icon = mission_rb_war_of_the_roses
		position = 1
		required_missions = {  }
		
		provinces_to_highlight = {
			owner = { has_country_flag = lilac_wars_rose_party }
			is_capital = yes
		}
		
		trigger = {
			alliance_with = A30
			calc_true_if = {
				all_ally = {
					has_country_flag = lilac_wars_rose_party
				}
				amount = 2
			}
		}
		
		effect = {
			add_country_modifier = {
				name = sugamber_diplo_rep
				duration = 7300
			}
		}
	}
	
	sugamber_bisan_partition = {
		icon = invade_poland
		position = 2
		required_missions = { 
			sugamber_lilac_wars_consolidate
			sugamber_ready_for_war
			sugamber_rose_party_allies
		}
		
		trigger = {
			OR = {
				AND = {
					exists = A34
					alliance_with = A30
					A30 = {
						has_opinion = {
							who = ROOT
							value = 200
						}
						is_at_war = no
					}
					is_at_war = no
					statesman = 1
					dip_power = 100
				}
				NOT = { exists = A34 }
			}
		}
		
		effect = {
			if = {
				limit = { exists = A34 }
				add_dip_power = -100
				country_event = { id = flavor_sugamber.2001 }
			}
		}
	}
	
	sugamber_between_lions_maw = {
		icon = mission_amur_acquisition
		position = 4
		required_missions = {  }
		
		trigger = {
			war_with = A72
			war_with = A29
		}
		
		effect = {
			add_country_modifier = {
				name = sugamber_lions_maw
				duration = 3650
			}
		}
	}
	
	sugamber_borders_secured = {
		icon = overseas_empire
		position = 5
		required_missions = { sugamber_expand_coast }
		
		provinces_to_highlight = {
			OR = {
				area = rhinmond_area
				area = antir_drop_area
			}
			NOT = { country_or_non_sovereign_subject_holds = ROOT }	
		}
		
		trigger = {
			OR = {
				rhinmond_area = {
					type = all
					country_or_non_sovereign_subject_holds = ROOT
				}
				AND = {
					alliance_with = A86
					reverse_has_opinion = {
						who = A86
						value = 190
					}
					414 = {
						country_or_non_sovereign_subject_holds = ROOT
					}
				}
			}
			antir_drop_area = {
				type = all
				country_or_non_sovereign_subject_holds = ROOT
			}
		}
		
		effect = {
			add_stability_or_adm_power = yes
			add_prestige = 10
			arannen_area = {
				limit = {
					NOT = { country_or_non_sovereign_subject_holds = ROOT}
				}
				add_permanent_claim = ROOT
			}
		}
	}
	
	sugamber_salt_lions_demise = {
		icon = foothold_in_greece
		position = 6
		required_missions = { sugamber_borders_secured }
		
		provinces_to_highlight = {
			area = arannen_area
			NOT = { country_or_non_sovereign_subject_holds = ROOT }
		}
		
		trigger = {
			arannen_area = {
				type = all
				country_or_non_sovereign_subject_holds = ROOT
			}
		}
		
		effect = {
			add_prestige = 20
			arannen_area = {
				add_province_modifier = {
					name = "faster_integration"
					duration = 3650
				}
			}
		}
	}
	
	sugamber_claim_the_marquisate = {
		icon = mission_crowning
		position = 8
		required_missions = { sugamber_salt_lions_demise }
		
		provinces_to_highlight = {
			superregion = western_cannor_superregion
			owned_by = A72
		}
		
		trigger = {
			NOT = {
				A72 = {
					any_owned_province = {
						superregion = western_cannor_superregion 
					}
				}
			}
			OR = {
				emperor = {
					has_opinion = {
						who = ROOT
						value = 150
					}
				}
				army_size = emperor
			}
		}
		
		effect = {
			custom_tooltip = sugamber_claim_the_marquisate_reward_tt
			set_country_flag = is_a_marquisate
			if = {
				limit = { exists = A72 }
				A72 = {
					clr_country_flag = is_a_marquisate
				}
			}
			hidden_effect = {
				western_cannor_superregion = {
					limit = {
						culture = arannese
						NOT = { country_or_non_sovereign_subject_holds = ROOT }
					}
					add_permanent_claim = ROOT
				}
			}
		}
	}
	
	sugamber_hegemony_over_the_arannese = {
		icon = sweep_the_po
		position = 10
		required_missions = { sugamber_claim_the_marquisate }
		
		provinces_to_highlight = {
			superregion = western_cannor_superregion
			culture = arannese
			NOT = { country_or_non_sovereign_subject_holds = ROOT }
		}
		
		trigger = {
			custom_trigger_tooltip = {
				tooltip = sugamber_hegemony_over_the_arannese_trigger_tt
				western_cannor_superregion = {
					type = all
					if = {
						limit = { culture = arannese }
						country_or_non_sovereign_subject_holds = ROOT
					}
				}
			}
		}
		
		effect = {
			rotwall_area = {
				limit = {
					NOT = { owned_by = ROOT }
					NOT = { is_core = ROOT }
				}
				add_permanent_claim = ROOT
			}
			add_country_modifier = {
				name = sugamber_hegemony_over_arannese
				duration = 7300
			}
		}
	}
	
	sugamber_invest_in_arannese_lands = {
		icon = mission_rb_import_potatoes
		position = 11
		required_missions = { sugamber_hegemony_over_the_arannese }
		
		provinces_to_highlight = {
			owned_by = ROOT
			superregion = western_cannor_superregion
			culture = arannese
			OR = {
				NOT = { development = 15 }
				NOT = {
					has_tax_building_trigger = yes
					has_production_building_trigger = yes
				}
			}
		}
		
		trigger = {
			num_of_owned_provinces_with = {
				value = 20
				culture = arannese
				development = 15
				OR = {
					has_tax_building_trigger = yes
					has_production_building_trigger = yes
				}
			}
		}
		
		effect = {
			if = {
				limit = {
					NOT = {
						has_dlc = "Mandate of Heaven"
					}
				}
				if = {
					limit = { monthly_income = 50 }
					add_years_of_income = 1
				}
				else = {
					add_treasury = 500
				}
			}
			else = {
				904 = {
					add_prosperity = 50
				}
				413 = {
					add_prosperity = 50
				}
				420 = {
					add_prosperity = 50
				}
				417 = {
					add_prosperity = 50
				}
				322 = {
					add_prosperity = 50
				}
				411 = {
					add_prosperity = 50
				}
				326 = {
					add_prosperity = 50
				}
			}
		}
	}
	
	sugamber_integrate_arannese_people = {
		icon = mission_rb_control_electors
		position = 12
		required_missions = { sugamber_invest_in_arannese_lands }
		
		provinces_to_highlight = {
			owned_by = ROOT
			culture = arannese
			OR = {
				unrest = 1
				local_autonomy = 10
				nationalism = 1
			}
		}
		
		trigger = {
			num_of_owned_provinces_with = {
				value = 25
				culture = arannese
				NOT = { unrest = 1 }
				NOT = { local_autonomy = 10 }
				NOT = { nationalism = 1 }
			}
		}
		
		effect = {
			add_country_modifier = {
				name = sugamber_integrate_arannese
				duration = -1
			}
			add_accepted_culture = arannese
		}
	}
	
	sugamber_arannese_industry_sugamber_arms = {
		icon = industrialized_rhineland
		position = 13
		required_missions = { sugamber_integrate_arannese_people }
		
		provinces_to_highlight = {
			owned_by = ROOT
			OR = {
				AND = {
					culture = wexonard
					NOT = { has_manpower_building_trigger = yes }
					NOT = { ROOT = { num_of_owned_provinces_with = { value = 10 culture = wexonard has_manpower_building_trigger = yes } } }
				}
				AND = {
					culture = arannese
					NOT = { has_manufactory_trigger = yes }
					NOT = { ROOT = { num_of_owned_provinces_with = { value = 5 culture = arannese has_manufactory_trigger = yes } } }
				}
			}
		}
		
		trigger = {
			num_of_owned_provinces_with = {
				value = 10
				culture = wexonard
				has_manpower_building_trigger = yes
			}
			num_of_owned_provinces_with = {
				value = 5
				culture = arannese
				has_manufactory_trigger = yes
			}
		}
		
		effect = {
			add_country_modifier = {
				name = sugamber_arms_arannese_industry
				duration = 7300
			}
		}
	}
	
	sugamber_secure_the_south = {
		icon = mission_recover_konkan_ports
		position = 15
		required_missions = { }
		
		provinces_to_highlight = {
			country_or_non_sovereign_subject_holds = ROOT
			region = businor_region
			has_port = yes
		}
		
		trigger = {
			num_of_provinces_owned_or_owned_by_non_sovereign_subjects_with = {
				value = 5
				region = businor_region
				has_coastal_defence_building = yes
			}
			num_of_provinces_owned_or_owned_by_non_sovereign_subjects_with = {
				value = 2
				region = businor_region
				has_port = yes
				has_fort_building_trigger = yes
				base_manpower = 10
			}
		}
		
		effect = {
			add_country_modifier = {
				name = sugamber_south_secured
				duration = 18250
			}
		}
	}
}

sugamber_3_missions = { 
	slot = 3
	generic = no
	ai = yes 
	has_country_shield = yes
	potential = { tag = A48 }
	
	sugamber_ready_for_war = {
		icon = mission_consolidate_the_state
		position = 1
		required_missions = {  }
		
		trigger = {
			army_size_percentage = 0.9
		}
		
		effect = {
			highcliff_area = {
				limit = {
					NOT = { is_core = ROOT }
					NOT = { is_permanent_claim = ROOT }
				}
				add_permanent_claim = ROOT
			}
		}
	}
	
	sugamber_expand_coast = {
		icon = mission_unite_bengal
		position = 4
		required_missions = { sugamber_ready_for_war }
		
		provinces_to_highlight = {
			area = highcliff_area
			NOT = { country_or_non_sovereign_subject_holds = ROOT }
		}
		
		trigger = {
			highcliff_area = {
				type = all
				country_or_non_sovereign_subject_holds = ROOT
			}
		}
		
		effect = {
			rhinmond_area = {
				limit = { 
					NOT = { is_core = ROOT }
					NOT = { owned_by = ROOT }
				}
				add_permanent_claim = ROOT
			}
			antir_drop_area = {
				limit = { 
					NOT = { is_core = ROOT }
					NOT = { owned_by = ROOT }
				}
				add_permanent_claim = ROOT
			}
			add_country_modifier = {
				name = sugamber_build_a_fleet
				duration = 7300
			}
		}
	}
	
	sugamber_control_of_gulf = {
		icon = mission_unite_coromandel
		position = 5
		required_missions = { sugamber_expand_coast }
		
		provinces_to_highlight = {
			province_id = 413 #Sorncell
			OR = {
				NOT = { has_shipyard_building_trigger = yes }
				NOT = { owned_by = ROOT }
				NOT = { is_core = ROOT }
			}
		}
		
		trigger = {
			navy_size_percentage = 0.90
			413 = {
				has_shipyard_building_trigger = yes
				owned_by = ROOT
				is_core = ROOT
			}
		}
		
		effect = {
			daravans_folly_region = {
				limit = { 
					NOT = { is_core = ROOT }
					NOT = { owned_by = ROOT }
				}
				add_permanent_claim = ROOT
			}
			413 = {
				add_trade_modifier = {
					who = ROOT
					duration = 7300
					power = 25
					key = SUGAMBER_TRADE
				}
			}
		}
	}
	
	sugamber_reclaim_the_folly = {
		icon = mission_settlers_north_america
		position = 6
		required_missions = { sugamber_control_of_gulf }
		
		provinces_to_highlight = {
			region = daravans_folly_region
			NOT = { country_or_non_sovereign_subject_holds = ROOT }
			NOT = { province_id = 451 }
		}
		
		trigger = {
			custom_trigger_tooltip = {
				tooltip = sugamber_reclaim_the_folly_trigger_tt
				daravans_folly_region = {
					type = all
					if = {
						limit = { NOT = { province_id = 451 } }
						country_or_non_sovereign_subject_holds = ROOT
					}	
				}
			}
		}
		
		effect = {
			every_owned_province = {
				limit = { region = daravans_folly_region }
				add_province_modifier = {
					name = sugamber_reclaim_the_folly
					duration = 18250
				}
			}
		}
	}
	
	sugamber_the_folly_restored = {
		icon = mission_green_village
		position = 8
		required_missions = { sugamber_reclaim_the_folly }
		
		provinces_to_highlight = {
			region = daravans_folly_region
			OR = {
				NOT = { is_part_of_hre = yes }
				NOT = { has_any_building_trigger = yes }
			}
		}
		
		trigger = {
			development_in_provinces = {
				value = 80
				NOT = { province_id = 451 }
				region = daravans_folly_region
			}
			daravans_folly_region = {
				type = all
				is_part_of_hre = yes
			}
			custom_trigger_tooltip = {
				tooltip = sugamber_folly_restored_trigger
				daravans_folly_region = {
					type = all
					has_any_building_trigger = yes
				}
			}
		}
		
		effect = {
			daravans_folly_region = {
				add_province_modifier = {
					name = sugamber_folly_tax
					duration = 7300
				}
			}
			ourdia_region = {
				limit = {
					NOT = { is_core = ROOT }
					NOT = { is_permanent_claim = ROOT }
				}
				add_permanent_claim = ROOT
			}
		}
	}
	
	sugamber_curtail_the_goblin_threat = {
		icon = the_italian_league
		position = 9
		required_missions = { sugamber_the_folly_restored }
		
		provinces_to_highlight = {
			region = ourdia_region
			NOT = { country_or_non_sovereign_subject_holds = ROOT }
		}
		
		trigger = {
			ourdia_region = {
				type = all
				country_or_non_sovereign_subject_holds = ROOT
			}
		}
		
		effect = {
			ourdia_region = {
				add_province_modifier = {
					name = sugamber_goblin_threat_curtailed
					duration = 9125
				}
			}
		}
	}
	
	sugamber_reign_in_the_knights = {
		icon = the_hundred_years_war
		position = 11
		required_missions = { sugamber_hegemony_over_the_arannese }
		
		provinces_to_highlight = {
			owned_by = A77
		}
		
		trigger = {
			OR = {
				AND = {
					A77 = {
						has_opinion = {
							who = ROOT
							value = 150
						}
					}
					dip_power = 100
					mil_power = 100
				}
				NOT = { exists = A77 }
			}
		}
		
		effect = {
			if = {
				limit = { exists = A77 }
				add_dip_power = -100
				add_mil_power = -100
				A77 = {
					country_event = {
						id = flavor_sugamber.2005
						days = 7
					}
				}
			}
		}
	}
	
	sugamber_cinch_the_north = {
		icon = mission_rb_take_north_india
		position = 14
		required_missions = { sugamber_reign_in_the_knights }
		
		provinces_to_highlight = {
			OR = {
				area = ashfields_area
				province_id = 423
			}
			OR = {
				NOT = { has_building = ramparts }
				NOT = { base_manpower = 10 }
				NOT = { country_or_non_sovereign_subject_holds = ROOT }
				NOT = { fort_level = 2 }
				AND = {
					province_id = 423
					NOT = { fort_level = 4 }
				}
			}
		}
		
		trigger = {
			ashfields_area = {
				fort_level = 2
				has_building = ramparts
				base_manpower = 10
				country_or_non_sovereign_subject_holds = ROOT
			}
			423 = {
				fort_level = 4
				has_building = ramparts
				base_manpower = 10
				country_or_non_sovereign_subject_holds = ROOT
			}
		}
		
		effect = {
			add_country_modifier = {
				name = sugamber_north_cinched
				duration = 18250
			}
			423 = {
				add_permanent_province_modifier = {
					name = sugamber_local_defensiveness
					duration = -1
				}
			}
		}
	}
	
	sugamber_shield_of_the_empire = {
		icon = give_him_back_his_legions
		position = 16
		required_missions = { 
			sugamber_secure_the_south
			sugamber_cinch_the_north
			sugamber_plug_the_east
		}
		
		trigger = {
			num_of_owned_provinces_with = {
				value = 12
				fort_level = 4
				base_manpower = 10
			}
			full_idea_group = defensive_ideas
		}
		
		effect = {
			add_country_modifier = {
				name = sugamber_shield_of_the_empire
				duration = -1
			}
		}
	}
}

sugamber_4_missions = { 
	slot = 4
	generic = no
	ai = yes 
	has_country_shield = yes
	potential = { tag = A48 }
	
	sugamber_renaissance = {
		icon = florentine_renaissance
		position = 1
		required_missions = {  }
		
		provinces_to_highlight = {
			owned_by = ROOT
			culture = wexonard
			NOT = { development = 12 }
		}
		
		trigger = {
			has_institution = renaissance
			num_of_owned_provinces_with = {
				value = 6
				culture = wexonard
				development = 12
			}
		}
		
		effect = {
			add_country_modifier = {
				name = sugamber_renaissance
				duration = 7300
			}
		}
	}
	
	sugamber_rhinmond_silk = {
		icon = mission_valencian_silk
		position = 2
		required_missions = { sugamber_renaissance }
		
		trigger = {
			OR = {
				AND = {
					spymaster = 1
					dip_power = 100
					any_known_country = {
						owns = 601
						has_spy_network_from = {
							who = ROOT
							value = 50
						}
					}
				}
				AND = {
					treasury = 300
					trader = 1
				}
			}
		}
		
		effect = {
			if = {
				limit = {
					spymaster = 1
					dip_power = 100
					any_known_country = {
						owns = 601
						has_spy_network_from = {
							who = ROOT
							value = 50
						}
					}
				}
				add_dip_power = -100
			}
			else = {
				add_treasury = -300
			}
			919 = {
				change_trade_goods = silk
				add_base_production = 3
			}
		}
	}
	
	sugamber_rhinmond_carnival_troupe = {
		icon = bavarian_cultural_dominance
		position = 3
		required_missions = { sugamber_rhinmond_silk }
		
		trigger = {
			treasury = 500
			has_idea = A48_land_of_funfairs
		}
		
		effect = {
			add_treasury = -500
			country_event = { id = flavor_sugamber.2000 }
		}
	}
	
	sugamber_industrial_military_complex = {
		icon = mission_assemble_an_army_and_factory_smoke
		position = 4
		required_missions = { }
		
		provinces_to_highlight = {
			owned_by = ROOT
			culture = wexonard
			OR = {
				trade_goods = iron
				trade_goods = copper
				trade_goods = coal
			}
			OR = {
				NOT = {
					has_building = weapons
					has_building = furnace
				}
				NOT = { base_manpower = 8 }
				NOT = { base_production = 8 }
			}
		}
		
		trigger = {	
			num_of_owned_provinces_with = {
				value = 4
				culture = wexonard
				OR = {
					has_building = weapons
					has_building = furnace
				}
				base_manpower = 8
				base_production = 8
			}
		}
		
		effect = {
			custom_tooltip = sugamber_industrial_military_complex_reward_tt
			hidden_effect = {
				every_owned_province = {
					limit = {
						culture = wexonard
						has_building = weapons
						base_manpower = 6
						base_production = 6
					}
					add_permanent_province_modifier = {
						name = sugamber_industrial_military_province
						duration = -1
					}
				}
			}
			add_country_modifier = {
				name = sugamber_industrial_military_country
				duration = 7300
			}
		}
	}
	
	sugamber_military_academies = {
		icon = reclaim_the_ducal_lands
		position = 5
		required_missions = { sugamber_industrial_military_complex }
		
		trigger = {
			num_of_owned_provinces_with = {
				value = 5
				has_building = university
			}
		}
		
		effect = {
			add_country_modifier = {
				name = sugamber_military_academies
				duration = 18250
			}
		}
	}
	
	sugamber_assert_flamemarked_dominance = {
		icon = mission_al_andalus
		position = 7
		required_missions = { sugamber_reclaim_the_folly }
		
		trigger = {
			custom_trigger_tooltip = {
				tooltip = sugamber_assert_flamemarked_dominance_trigger_tt
				NOT = {
					calc_true_if = {
						all_country = {
							culture_group = gnollish
							capital_scope = {
								superregion = bulwar_superregion
							}			
							total_development = ROOT
							army_size = ROOT
						}
						amount = 1
					}
				}
			}
			NOT = { has_country_modifier = racial_pop_gnollish_expulsion }
			NOT = { has_country_modifier = racial_pop_gnollish_purge }
		}
		
		effect = {
			medium_increase_of_gnollish_tolerance_effect = yes
		}
	}
	
	sugamber_flamemarked_auxilaries = {
		icon = mission_flamemarked_gnoll_auxilaries
		position = 8
		required_missions = { sugamber_assert_flamemarked_dominance }
		
		provinces_to_highlight = {
			region = daravans_folly_region
			OR = {
				NOT = { owned_by = ROOT }
				NOT = { is_core = ROOT }
				AND = {
					has_gnollish_majority_trigger = yes
					OR = {
						NOT = { base_manpower = 5 }
						AND = {
							NOT = { has_forcelimit_building_trigger = yes }
							NOT = { has_manpower_building_trigger = yes }
						}
					}
				}
			}
		}
		
		trigger = {
			custom_trigger_tooltip = {
				tooltip = sugamber_flamemarked_auxilaries_trigger_tt
				daravans_folly_region = {
					type = all
					if = {
						limit = { has_gnollish_majority_trigger = yes }
						base_manpower = 5
						OR = {
							has_forcelimit_building_trigger = yes
							has_manpower_building_trigger = yes
						}
					}
					owned_by = ROOT
					is_core = ROOT
				}
			}
			NOT = { has_country_modifier = racial_pop_gnollish_expulsion }
			NOT = { has_country_modifier = racial_pop_gnollish_purge }
		}
		
		effect = {
			add_country_modifier = {
				name = sugamber_gnoll_auxilaries
				duration = 3650
			}
			set_country_flag = sugamber_flamemarked_mercs_flag
			custom_tooltip = sugamber_flamemarked_gnoll_auxilaries_reward_tt
		}
	}
	
	sugamber_the_alpha_pack = {
		icon = mission_burning_separation
		position = 10
		required_missions = {
			sugamber_flamemarked_auxilaries
			sugamber_hill_gnoll_auxilaries
		}
		
		trigger = {	
			any_hired_mercenary_company = {
				template = merc_sugamber_hill_gnoll
			}
			any_hired_mercenary_company = {
				template = merc_sugamber_flamemarked_gnoll
			}
			army_reformer = 1
		}
		
		effect = {
			country_event = { id = flavor_sugamber.2008 }
		}
	}
	
	sugamber_plug_the_east = {
		icon = mission_conquer_mewar
		position = 15
		required_missions = { }
		
		provinces_to_highlight = {
			OR = {
				AND = {
					OR = {
						area = east_overmarch_area
						area = west_overmarch_area
					}
					NOT = { is_part_of_hre = yes }
				}
				AND = {
					area = central_dreadmire_area
					NOT = { central_dreadmire_area = { fort_level = 2 base_manpower = 10 country_or_non_sovereign_subject_holds = ROOT } }
				}
				AND = {
					area = north_dreadmire_area
					NOT = { north_dreadmire_area = { fort_level = 2 base_manpower = 10 country_or_non_sovereign_subject_holds = ROOT } }
				}
				AND = {
					area = baldostan_area
					NOT = { baldostan_area = { fort_level = 2 base_manpower = 10 country_or_non_sovereign_subject_holds = ROOT } }
				}
				AND = {
					area = east_overmarch_area
					NOT = { east_overmarch_area = { fort_level = 2 base_manpower = 10 country_or_non_sovereign_subject_holds = ROOT } }
				}
			}
		}
		
		trigger = {	
			510 = {
				has_province_modifier = castanorian_citadel
			}
			east_overmarch_area = {
				type = all
				is_part_of_hre = yes
			}
			west_overmarch_area = {
				type = all
				is_part_of_hre = yes
			}
			central_dreadmire_area = {
				fort_level = 2
				base_manpower = 10
				country_or_non_sovereign_subject_holds = ROOT
			}
			north_dreadmire_area = {
				fort_level = 2
				base_manpower = 10
				country_or_non_sovereign_subject_holds = ROOT
			}
			baldostan_area = {
				fort_level = 2
				base_manpower = 10
				country_or_non_sovereign_subject_holds = ROOT
			}
			east_overmarch_area = {
				fort_level = 2
				base_manpower = 10
				country_or_non_sovereign_subject_holds = ROOT
			}
		}
		
		effect = {
			add_country_modifier = {
				name = sugamber_east_plugged
				duration = 18250
			}
		}
	}
}

sugamber_5_missions = { 
	slot = 5
	generic = no
	ai = yes 
	has_country_shield = yes
	potential = { tag = A48 }
	
	sugamber_escandar_battlements = {
		icon = mission_mountain_castle
		position = 1
		required_missions = { }
		
		provinces_to_highlight = {
			province_id = 316
			OR = {
				NOT = { fort_level = 2 }
				NOT = { has_manpower_building_trigger = yes }
			}
		}
		
		trigger = {
			316 = {
				fort_level = 2
				has_manpower_building_trigger = yes
			}
		}
		
		effect = {
			316 = {
				add_province_modifier = {
					name = sugamber_escandar_battlements
					duration = -1
				}
			}
		}
	}
	
	sugamber_eyes_of_the_south = {
		icon = mission_dark_book
		position = 2
		required_missions = { sugamber_escandar_battlements }
		
		provinces_to_highlight = {
			province_id = 316
			NOT = { has_building = ramparts }
			NOT = { has_building = mage_tower }
		}
		
		trigger = {
			316 = {
				OR = {
					has_building = ramparts
					has_building = mage_tower	
				}
			}
		}
		
		effect = {
			add_country_modifier = {
				name = sugamber_eyes_of_the_south
				duration = 7300
			}
		}
	}
	
	sugamber_escandar_homecoming = {
		icon = mission_feast
		position = 4
		required_missions = { sugamber_eyes_of_the_south }
		
		provinces_to_highlight = {
			is_capital = yes
			owner = { culture_group = elven }
			has_discovered = ROOT
		}
		
		trigger = {
			dip_power = 100
			any_known_country = {
				culture_group = elven
				has_opinion = {
					who = ROOT
					value = 150
				}
			}
		}
		
		effect = {
			add_dip_power = -100
			316 = {
				add_elven_minority_size_effect = yes
				add_base_manpower = 2
			}
			small_increase_of_elven_tolerance_effect = yes
		}
	}
	
	sugamber_establish_the_escandar_dhanbok = {
		icon = a_question_of_spain
		position = 6
		required_missions = {
			sugamber_escandar_homecoming
			sugamber_military_academies
		}
		
		provinces_to_highlight = {
			province_id = 316
			OR = {
				NOT = { development = 20 }
				NOT = { fort_level = 6 }
			}
		}
		
		trigger = {
			316 = {
				development = 20
				fort_level = 6
			}
		}
		
		effect = {
			316 = {
				add_province_modifier = {
					name = sugamber_escandar_dhanbok
					duration = -1
				}
			}
		}
	}
	
	sugamber_assert_hill_dominance = {
		icon = mission_al_andalus
		position = 8
		required_missions = { }
		
		trigger = {
			custom_trigger_tooltip = {
				tooltip = sugamber_assert_hill_dominance_trigger_tt
				NOT = {
					calc_true_if = {
						all_country = {
							culture_group = gnollish
							capital_scope = {
								superregion = salahad_superregion
							}
							total_development = ROOT
							army_size = ROOT
						}
						amount = 1
					}
				}
			}
			NOT = { has_country_modifier = racial_pop_gnollish_expulsion }
			NOT = { has_country_modifier = racial_pop_gnollish_purge }
		}
		
		effect = {
			medium_increase_of_gnollish_tolerance_effect = yes
		}
	}
	
	sugamber_hill_gnoll_auxilaries = {
		icon = mission_hill_gnoll_auxilaries
		position = 9
		required_missions = { sugamber_assert_hill_dominance }
		
		provinces_to_highlight = {
			province_id = 913
			OR = {
				NOT = { base_manpower = 7 }
				NOT = { has_forcelimit_building_trigger = yes }
			}
		}
		
		trigger = {
			913 = {
				base_manpower = 7
				has_forcelimit_building_trigger = yes
			}
		}
		
		effect = {
			add_country_modifier = {
				name = sugamber_gnoll_auxilaries
				duration = 3650
			}
			set_country_flag = sugamber_hill_mercs_flag
			custom_tooltip = sugamber_hill_gnoll_auxilaries_reward_tt
		}
	}
}