
country_decisions = {
	put_rockets_on_the_road = {
		major = yes
		potential = {
			tag = I98
			has_estate_privilege = artifice_invention_rocket_rails_allclan
			adm_tech = 18
			any_owned_province = {
				has_province_modifier = advanced_rail
				NOT = { has_construction = building }
			}
		}
		
		provinces_to_highlight = {
			has_province_modifier = advanced_rail
			NOT = { has_construction = building }
			is_state = yes
			any_neighbor_province = {
				OR = {
					has_province_modifier = rocket_rail
					AND = {
						OR = {
							has_terrain = dwarven_hold
							has_terrain = dwarven_hold_surface
						}
						NOT = { has_province_modifier = ruined_hold }
						NOT = { has_province_modifier = infested_hold }
					}
				}
				is_state = yes
				owned_by = ROOT
			}
			owned_by = ROOT
		}
		
		allow = {
			adm_tech = 21
			treasury = 90
			any_owned_province = {
				has_province_modifier = advanced_rail
				NOT = { has_construction = building }
				is_city = yes
				is_state = yes
				any_neighbor_province = {
					OR = {
						has_province_modifier = rocket_rail
						AND = {
							OR = {
								has_terrain = dwarven_hold
								has_terrain = dwarven_hold_surface
							}
							NOT = { has_province_modifier = ruined_hold }
							NOT = { has_province_modifier = infested_hold }
						}
					}
					is_state = yes
					owned_by = ROOT
				}
			}
		}
		
		effect = {
			custom_tooltip = this_is_a_good_idea_tt
			random_owned_province = {
				limit = {
					has_province_modifier = advanced_rail
					NOT = { has_construction = building }
					is_city = yes
					is_state = yes
					any_neighbor_province = {
						OR = {
							has_province_modifier = rocket_rail
							AND = {
								OR = {
									has_terrain = dwarven_hold
									has_terrain = dwarven_hold_surface
								}
								NOT = { has_province_modifier = ruined_hold }
								NOT = { has_province_modifier = infested_hold }
							}
						}
						is_state = yes
						owned_by = ROOT
					}
				}
				add_building_construction = {
					building = railway_work
					speed = 1
					cost = 6
				}
			}
		}
		
		ai_will_do = {
			factor = 400
		}
	}



	industrial_cavern_quarrying = {
		major = yes
		potential = {
			tag = I98
			has_estate_privilege = artifice_invention_cavern_quarrying_allclan
			adm_tech = 18
			any_owned_province = {
				NOT = { has_province_modifier = allclan_quarried_cavern }
				has_terrain = cavern
				NOT = { has_construction = building }
			}
		}
		
		provinces_to_highlight = {
			NOT = { 
				has_province_modifier = allclan_quarried_cavern
				has_building = allclan_industrialization_works
			}
			has_terrain = cavern
			NOT = { has_construction = building }
			NOT = { has_construction = missionary }
			NOT = { has_construction = colonist }
			NOT = { has_construction = culture }
			is_state = yes
			any_neighbor_province = {
				OR = {
					has_province_modifier = rocket_rail
					has_province_modifier = allclan_quarried_cavern
					AND = {
						OR = {
							has_terrain = dwarven_hold
							has_terrain = dwarven_hold_surface
						}
						NOT = { has_province_modifier = ruined_hold }
						NOT = { has_province_modifier = infested_hold }
					}
				}
				is_state = yes
				owned_by = ROOT
			}
			owned_by = ROOT
		}
		
		allow = {
			adm_tech = 21
			treasury = 400
			any_owned_province = {
				NOT = {
					has_building = allclan_industrialization_works	
				}
				NOT = { has_province_modifier = allclan_quarried_cavern }
				has_terrain = cavern
				NOT = { has_construction = building }
				NOT = { has_construction = missionary }
				NOT = { has_construction = colonist }
				NOT = { has_construction = culture }
				is_city = yes
				is_state = yes
				any_neighbor_province = {
					OR = {
						has_province_modifier = rocket_rail
						has_province_modifier = allclan_quarried_cavern
						AND = {
							OR = {
								has_terrain = dwarven_hold
								has_terrain = dwarven_hold_surface
							}
							NOT = { has_province_modifier = ruined_hold }
							NOT = { has_province_modifier = infested_hold }
						}
					}
					is_state = yes
					owned_by = ROOT
				}
			}
		}
		
		effect = {
			custom_tooltip = this_cant_possibly_go_wrong_tt
			random_owned_province = {
				limit = {
					NOT = { 
						has_province_modifier = allclan_quarried_cavern 
						has_building = allclan_industrialization_works
					}
					has_terrain = cavern
					NOT = { has_construction = building }
					is_city = yes
					is_state = yes
					any_neighbor_province = {
						OR = {
							has_province_modifier = rocket_rail
							has_province_modifier = allclan_quarried_cavern
							AND = {
								OR = {
									has_terrain = dwarven_hold
									has_terrain = dwarven_hold_surface
								}
								NOT = { has_province_modifier = ruined_hold }
								NOT = { has_province_modifier = infested_hold }
							}
						}
						is_state = yes
						owned_by = ROOT
					}
				}
				add_building_construction = {
					building = allclan_industrialization_works
					speed = 6
					cost = 5
				}
			}
		}
	}

	allclan_industrial_farming = {
		major = yes
		potential = {
			tag = I98
			has_estate_privilege = artifice_invention_factory_farms_allclan
			adm_tech = 18
			any_owned_province = {
				OR = {
					has_province_modifier = allclan_quarried_cavern
					has_province_modifier = rocket_rail
				}
				NOT = { has_construction = building }
				factory_farm_check = yes
			}
		}
		
		provinces_to_highlight = {
			OR = {
				has_province_modifier = allclan_quarried_cavern
				has_province_modifier = rocket_rail
			}
			NOT = { has_construction = building }
			NOT = {
				has_building = allclan_industrialization_works	
			}
			is_state = yes
			factory_farm_check = yes
			owned_by = ROOT
		}
		
		allow = {
			adm_tech = 21
			treasury = 500
			any_owned_province = {
				NOT = {
					has_building = allclan_industrialization_works	
				}
				OR = {
					has_province_modifier = allclan_quarried_cavern
					has_province_modifier = rocket_rail
				}
				NOT = { has_construction = building }
				is_city = yes
				is_state = yes
				factory_farm_check = yes
			}
		}
		
		effect = {
			custom_tooltip = nothing_can_possibly_make_this_a_bad_idea_tt
			random_owned_province = {
				limit = {
					NOT = {
						has_building = allclan_industrialization_works	
					}
					OR = {
						has_province_modifier = allclan_quarried_cavern
						has_province_modifier = rocket_rail
					}
					NOT = { has_construction = building }
					is_city = yes
					is_state = yes
					factory_farm_check = yes
				}
				add_building_construction = {
					building = allclan_industrialization_works
					speed = 4
					cost = 6
				}
			}
		}
	
		ai_will_do = {
			factor = 400
			modifier = {
				factor = 0
				NOT = {
					treasury = 2000
				}
			}
		}
	}

	allclan_artifice_mining = {
		major = yes
		potential = {
			tag = I98
			has_estate_privilege = artifice_invention_artifice_mining_allclan
			adm_tech = 18
			any_owned_province = {
				OR = {
					has_province_modifier = allclan_quarried_cavern
					has_province_modifier = rocket_rail
				}
				NOT = { has_construction = building }
				artifice_mining_check = yes
			}
		}
		
		provinces_to_highlight = {
			OR = {
				has_province_modifier = allclan_quarried_cavern
				has_province_modifier = rocket_rail
			}
			NOT = {
				has_building = allclan_industrialization_works	
			}
			NOT = { has_construction = building }
			is_state = yes
			artifice_mining_check = yes
			owned_by = ROOT
		}
		
		allow = {
			adm_tech = 21
			treasury = 500
			any_owned_province = {
				NOT = {
					has_building = allclan_industrialization_works	
				}
				OR = {
					has_province_modifier = allclan_quarried_cavern
					has_province_modifier = rocket_rail
				}
				NOT = { has_construction = building }
				is_city = yes
				is_state = yes
				artifice_mining_check = yes
			}
		}
		
		effect = {
			custom_tooltip = this_is_a_good_idea_tt
			random_owned_province = {
				limit = {
					NOT = {
						has_building = allclan_industrialization_works	
					}
					OR = {
						has_province_modifier = allclan_quarried_cavern
						has_province_modifier = rocket_rail
					}
					NOT = { has_construction = building }
					is_city = yes
					is_state = yes
					artifice_mining_check = yes
				}
				add_building_construction = {
					building = allclan_industrialization_works
					speed = 4
					cost = 8
				}
			}
		}
	
		ai_will_do = {
			factor = 400
			modifier = {
				factor = 0
				NOT = {
					treasury = 2000
				}
			}
		}
	}

	allclan_hold_mega_industry = {
		major = yes
		potential = {
			tag = I98
			has_estate_privilege = artifice_invention_hold_mega_industry_allclan
			adm_tech = 18
			any_owned_province = {
				OR = {
					has_terrain = dwarven_hold
					has_terrain = dwarven_hold_surface
				}
				NOT = {
					has_construction = building
					has_province_modifier = allclan_hold_mega_industry
				}
				OR = {
					factory_farm_check = yes
					artifice_mining_check = yes
				} #why do I check this?
			}
		}
		
		provinces_to_highlight = {
			NOT = {
				has_building = allclan_industrialization_works	
			}
			OR = {
				has_terrain = dwarven_hold
				has_terrain = dwarven_hold_surface
			}
			NOT = {
				has_construction = building
				has_province_modifier = allclan_hold_mega_industry
			}
			is_state = yes
			owned_by = ROOT
		}
		
		allow = {
			adm_tech = 21
			treasury = 20000
			any_owned_province = {
				NOT = {
					has_building = allclan_industrialization_works	
				}
				OR = {
					has_terrain = dwarven_hold
					has_terrain = dwarven_hold_surface
				}
				NOT = {
					has_construction = building
					has_province_modifier = allclan_hold_mega_industry
				}
				is_city = yes
				is_state = yes
			}
		}
		
		effect = {
			custom_tooltip = this_is_a_good_idea_tt
			random_owned_province = {
				limit = {
					NOT = {
						has_building = allclan_industrialization_works	
					}
					OR = {
						has_terrain = dwarven_hold
						has_terrain = dwarven_hold_surface
					}
					NOT = {
						has_construction = building
						has_province_modifier = allclan_hold_mega_industry
					}
					is_city = yes
					is_state = yes
				}
				add_building_construction = {
					building = allclan_industrialization_works
					speed = 10
					cost = 300
				}
			}
		}
	
		ai_will_do = {
			factor = 400
			modifier = {
				factor = 0
				NOT = {
					treasury = 22000
				}
			}
		}
	}

	allclan_rocket_prep = {
		major = yes
		potential = {
			tag = I98
			has_country_flag = allclan_rocketry_launches
		}

		allow = {
			treasury = 5000
			adm_power = 50
			mil_power = 50
			any_owned_province = {
				has_province_modifier = allclan_nasa
			}
			NOT = {
				has_country_modifier = allclan_rocket_success
				has_country_modifier = allclan_rocket_failure
			}
			#allclan_not_pursuing_major_project = yes
		}
		
		effect = {
			add_treasury = -5000
			add_adm_power = -50
			add_mil_power = -50
			country_event = {
				id = allclan.83
				days = 0
			}
			#set_country_flag = allclan_project_cooldown
		}
	
		ai_will_do = {
			factor = 400
			modifier = {
				factor = 0
				NOT = {
					treasury = 50000
				}
			}
		}
	}

	allclan_launch_rocket = {
		major = yes
		potential = {
			tag = I98
			has_country_flag = allclan_rocketry_launches
		}

		allow = {
			has_country_modifier = allclan_rocket_ready
		}
		
		effect = {
			#launch
			remove_country_modifier = allclan_rocket_ready
			country_event = {
				id = allclan.79
				days = 0
			}
		}
	
		ai_will_do = {
			factor = 400
		}
	}

	allclan_deploy_gas = {
		major = yes
		potential = {
			tag = I98
			has_country_flag = allclan_gas_deployment
		}

		allow = {
			NOT = { has_country_modifier = allclan_poison_gas }
			if = {
				limit = {
					ai = no
				}
				mil_power = 20
			}
		}
		
		effect = {
			if = {
				limit = {
					ai = no
				}
				add_mil_power = -20
			}
			add_country_modifier = {
				name = allclan_poison_gas
				duration = 90
			}
		}
	
		ai_will_do = {
			factor = 400
		}
	}

	allclan_flush_out_dwarves = {
		major = yes
		potential = {
			tag = I98
			has_country_modifier = ghettoized_dwarves
			any_owned_province = {
				has_province_modifier = allclan_dwarven_uprising
			}
			mil_power = 20
		}

		allow = {
			any_owned_province = {
				has_province_modifier = allclan_dwarven_uprising
			}
			mil_power = 20
		}
		
		effect = {
			add_mil_power = -20
			random_owned_province = {
				limit = {
					has_province_modifier = allclan_dwarven_uprising
				}
				add_province_modifier = {
					name = allclan_flushing_out_dwarves
					duration = 365
				}
				hidden_effect = {
					province_event = {
						id = allclan.815
						days = 365
					}
				}
			}
		}
	
		ai_will_do = {
			factor = 400
		}
	}
}