namespace = flavor_tiltaghar

#An Offer from the Raj
country_event = {
	id = flavor_tiltaghar.1
	title = flavor_tiltaghar.1.t
	desc = flavor_tiltaghar.1.d
	picture = COURT_eventPicture
	
	is_triggered_only = yes
	
	trigger = {
		OR = {
			tag = R34 #Kamapar
			tag = R12 #Tilathi
		}
	}
	
	#Accept
	option = {
		name = flavor_tiltaghar.1.a
		ai_chance = {
			factor = 40
			modifier = {
				factor = 1.2
				has_opinion = {
					who = R08 #Tiltaghar
					value = 200
				}
			}
			modifier = {
				factor = 1.2
				R08 = {
					army_size = R10 #Sarnavan
				}
			}
		}
		R08 = { country_event = { id = flavor_tiltaghar.2 days = 30 } } # They Accept Vassalization offer
	}
	
	#Decline
	option = {
		name = flavor_tiltaghar.1.b
		ai_chance = {
			factor = 60
			modifier = {
				factor = 1.2
				R08 = {
					NOT = { army_size = R10 } #Sarnavan
				}
			}
			modifier = {
				factor = 1.2
				has_opinion = {
					who = R10 #Sarnavan
					value = 150
				}
			}
			modifier = {
				factor = 1.2
				has_opinion = {
					who = R10 #Sarnavan
					value = 200
				}
			}
		}
		R08 = { country_event = { id = flavor_tiltaghar.3 days = 30 } } # They Declined Vassalization offer
	}	
}

#They Accept Vassalization offer
country_event = {
	id = flavor_tiltaghar.2
	title = flavor_tiltaghar.2.t
	desc = flavor_tiltaghar.2.d
	picture = COURT_eventPicture
	
	is_triggered_only = yes
	
	trigger = {
		tag = R08 #Tiltaghar
	}
	
	#They Accepted
	option = {
		name = flavor_tiltaghar.2.a
		ai_chance = { factor = 100 }
		create_subject = {
			subject_type = vassal
			subject = FROM
		}
	}
}

#They Declined Vassalization offer
country_event = {
	id = flavor_tiltaghar.3
	title = flavor_tiltaghar.3.t
	desc = flavor_tiltaghar.3.d
	picture = COURT_eventPicture
	
	is_triggered_only = yes
	
	trigger = {
		tag = R08 #Tiltaghar
	}
	
	#They Declined
	option = {
		name = flavor_tiltaghar.2.a
		ai_chance = { factor = 100 }
		FROM = {
			every_owned_province = {
				add_permanent_claim = R08
			}
		}
	}
}

#Fall of Sarnavan
country_event = {
	id = flavor_tiltaghar.4
	title = flavor_tiltaghar.4.t
	desc = flavor_tiltaghar.4.d
	picture = COURT_eventPicture
	
	fire_only_once = yes
	is_triggered_only = yes
	
	trigger = {
		tag = R08 #Tiltaghar
	}
	
	#Move the riches to Tiltaghar
	option = {
		name = flavor_tiltaghar.4.a
		ai_chance = { factor = 100 }
		4510 = {
			add_base_production = -5
		}
		4466 = {
			add_base_production = 5
		}
		R51 = {
			add_opinion = {
				who = PREV
				modifier = tiltaghar_fall_sarnavan_opinion_modifier
			}
		}
	}
}

#Tiltaghar and the Raj
country_event = {
	id = flavor_tiltaghar.5
	title = flavor_tiltaghar.5.t
	desc = flavor_tiltaghar.5.d
	picture = COURT_eventPicture
	
	fire_only_once = yes
	is_triggered_only = yes
	
	trigger = {
		tag = R08 #Tiltaghar
	}
	
	#We Accept the Mission!
	option = {
		name = flavor_tiltaghar.5.a
		ai_chance = { factor = 100 }
		
		add_prestige = 25
		if = {
			limit = {
				R12 = { #Tilathi
					NOT = { vassal_of = root }
				}
			}
			tilathi_area = { add_permanent_claim = root }
			nakara_area = { add_permanent_claim = root }
		}
		if = {
			limit = {
				R11 = { #Khadisrapur
					NOT = { vassal_of = root }
				}
			}
			munlanan_area = { add_permanent_claim = root }
			khadisrapur_area = { add_permanent_claim = root }
			4519 = { add_permanent_claim = root } #Phabar
		}
	}
}

#Aftermath of the War
country_event = {
	id = flavor_tiltaghar.6
	title = flavor_tiltaghar.6.t
	desc = flavor_tiltaghar.6.d
	picture = COURT_eventPicture
	
	fire_only_once = yes
	is_triggered_only = yes
	
	trigger = {
		tag = R08 #Tiltaghar
	}
	
	#The Country will explote in 5.4.3.2.1...
	option = {
		name = flavor_tiltaghar.6.a
		ai_chance = { factor = 100 }
		
		custom_tooltip = tiltaghar_aftermath_war_event_tooltip
	}
}

#The fate of Sir
country_event = {
	id = flavor_tiltaghar.7
	title = flavor_tiltaghar.7.t
	desc = flavor_tiltaghar.7.d
	picture = COURT_eventPicture
	
	fire_only_once = yes
	is_triggered_only = yes
	
	trigger = {
		tag = R08 #Tiltaghar
	}
	
	#Independence
	option = {
		name = flavor_tiltaghar.7.a
		ai_chance = { factor = 100 }

		release = R78 #Sir
		create_alliance = R78 #Sir
		add_historical_friend = R78 #Sir
	}

	#Vassal
	option = {
		name = flavor_tiltaghar.7.b
		ai_chance = { factor = 100 }

		release = R78 #Sir
		vassalize = R78 #Sir
		add_historical_friend = R78 #Sir
	}

	#Rebels
	option = {
		name = flavor_tiltaghar.7.c
		ai_chance = { factor = 100 }
		4633 = { #Sir
			spawn_rebels = {
				type = nationalist_rebels
				size = 2
			}
		}
		4636 = { #Kamapura
			spawn_rebels = {
				type = nationalist_rebels
				size = 2
			}
		}
		4637 = { #Lakrazbul
			spawn_rebels = {
				type = nationalist_rebels
				size = 2
			}
		}
	}
}

#Calm in the North
country_event = {
	id = flavor_tiltaghar.8
	title = flavor_tiltaghar.8.t
	desc = flavor_tiltaghar.8.d
	picture = COURT_eventPicture
	
	fire_only_once = yes
	is_triggered_only = yes
	
	trigger = {
		tag = R08 #Tiltaghar
	}
	
	#Elden Ring reference (Kinda)
	option = {
		name = flavor_tiltaghar.8.a
		ai_chance = { factor = 100 }

		add_stability = 1
		add_prestige = 10
		define_ruler = {
			name = "Rani"
			dynasty = "of the Falling Claw"
			culture = royal_harimari
			female = yes
			adm = 5
			dip = 5
			mil = 2
			age = 25
			claim = 100
		}
		add_ruler_personality = well_connected_personality
	}
}

#The End of the Command
country_event = {
	id = flavor_tiltaghar.9
	title = flavor_tiltaghar.9.t
	desc = flavor_tiltaghar.9.d
	picture = COURT_eventPicture
	
	fire_only_once = yes
	is_triggered_only = yes
	
	trigger = {
		tag = R08 #Tiltaghar
	}
	
	#Give the Province to the Dwarves
	option = {
		name = flavor_tiltaghar.9.a
		ai_chance = { factor = 100 }
		jade_mines_region = { 
			limit = { owned_by = ROOT }
			add_core = I22
			cede_province = I22
		}
		4311 = {
			change_culture = jade_dwarf
			change_religion = ancestor_worship
		}
		add_historical_friend = I22 #Gronstunad
		I22 = {
			add_historical_friend = R08 #Tiltaghar
		}
		create_alliance = I22
		if = {
			limit = { has_country_flag = tiltaghar_deal_dwarves_accepted_flag }
			clr_country_flag = tiltaghar_deal_dwarves_accepted_flag
		}
	}

	#Keep the Province
	option = {
		name = flavor_tiltaghar.9.b
		ai_chance = { factor = 100 }
		
		add_prestige = 20
		add_adm_power = 150
		if = {
			limit = { has_country_flag = tiltaghar_deal_dwarves_accepted_flag }
			add_country_modifier = {
				name = tiltaghar_deal_dwarves_negated
				duration = 18250
			}
			clr_country_flag = tiltaghar_deal_dwarves_accepted_flag
		}
	}
}

#The Long March
country_event = {
	id = flavor_tiltaghar.10
	title = flavor_tiltaghar.10.t
	desc = flavor_tiltaghar.10.d
	picture = COURT_eventPicture
	
	fire_only_once = yes
	is_triggered_only = yes
	
	trigger = {
		tag = R08 #Tiltaghar
	}
	
	#
	option = {
		name = flavor_tiltaghar.10.a
		ai_chance = { factor = 100 }

		khamarutar_area = {
			limit = { culture_group = hobgoblin }
			change_culture = kamtarhid
			change_religion = high_philosophy
			add_base_tax = -2
			add_base_production = -2
			add_base_manpower = -2
			add_devastation = 20
		}

		tamvihar_area = {
			limit = { culture_group = hobgoblin }
			change_culture = kamtarhid
			change_religion = high_philosophy
			add_base_tax = -2
			add_base_production = -2
			add_base_manpower = -2
			add_devastation = 20
		}

		kradhungur_area = {
			limit = { culture_group = hobgoblin }
			change_culture = khedarid
			change_religion = high_philosophy
			add_base_tax = -2
			add_base_production = -2
			add_base_manpower = -2
			add_devastation = 20
		}
		
		4630 = {
			if = {
				limit = { culture_group = hobgoblin }
				change_culture = khedarid
				change_religion = high_philosophy
				add_base_tax = -2
				add_base_production = -2
				add_base_manpower = -2
				add_devastation = 20
			}
		}

		jade_mines_region = {
			limit = { culture_group = hobgoblin }
			change_culture = jade_dwarf
			add_base_tax = -2
			add_base_production = -2
			add_base_manpower = -2
			add_devastation = 20
		}
	}

	option = {
		name = flavor_tiltaghar.10.b
		ai_chance = { factor = 100 }

		add_prestige = -20
		add_dip_power = 150
		add_army_tradition = 20
		jade_mines_region = {
			limit = { culture_group = hobgoblin }
			change_culture = jade_dwarf
			change_religion = ancestor_worship
			add_base_tax = -2
			add_base_production = -2
			add_base_manpower = -2
			add_devastation = 20
		}
		medium_increase_of_hobgoblin_tolerance_effect = yes
		shamakhad_region = {
			limit = { culture_group = hobgoblin }
			add_base_tax = 1
			add_base_production = 1
			add_base_manpower = 1
		}
	}
}

#The Hobgoblins are Expelled from Sir
country_event = {
	id = flavor_tiltaghar.11
	title = flavor_tiltaghar.11.t
	desc = flavor_tiltaghar.11.d
	picture = COURT_eventPicture
	
	fire_only_once = yes
	is_triggered_only = yes
	
	trigger = {
		tag = R08 #Tiltaghar
	}
	
	#Great!
	option = {
		name = flavor_tiltaghar.11.a
		ai_chance = { factor = 100 }

		if = {
			limit = {
				has_country_flag = tiltaghar_northern_war_1
			}
			clr_country_flag = tiltaghar_northern_war_1
			set_country_flag = tiltaghar_northern_war_2
			remove_country_modifier = tiltaghar_northern_war_1_modifier
			add_country_modifier = {
				name = tiltaghar_northern_war_2_modifier
				duration = -1
			}
		}
		else_if = {
			limit = {
				has_country_flag = tiltaghar_northern_war_2
			}
			clr_country_flag = tiltaghar_northern_war_2
			set_country_flag = tiltaghar_northern_war_3
			remove_country_modifier = tiltaghar_northern_war_2_modifier
			add_country_modifier = {
				name = tiltaghar_northern_war_3_modifier
				duration = -1
			}
		}
		else = {
			limit = {
				has_country_flag = tiltaghar_northern_war_3
			}
			clr_country_flag = tiltaghar_northern_war_3
			set_country_flag = tiltaghar_northern_war_4
			remove_country_modifier = tiltaghar_northern_war_3_modifier
			add_country_modifier = {
				name = tiltaghar_northern_war_4_modifier
				duration = -1
			}
		}
		custom_tooltip = tiltaghar_expelled_hobgoblins_tooltip
		hidden_effect = {
			if = { #Deal with the Ministries
				limit = {
					4466 = { has_province_modifier = tiltaghar_deal_ministries_1_modifier } #Tiltaghar
				}
				4466 = {
					remove_province_triggered_modifier = tiltaghar_deal_ministries_1_modifier
					add_province_triggered_modifier = tiltaghar_deal_ministries_2_modifier
				}
			}
			else_if = { #Deal with the Ministries
				limit = {
					4466 = { has_province_modifier = tiltaghar_deal_ministries_2_modifier } #Tiltaghar
				}
				4466 = {
					remove_province_triggered_modifier = tiltaghar_deal_ministries_2_modifier
					add_province_triggered_modifier = tiltaghar_deal_ministries_3_modifier
				}
			}
			else = { #Deal with the Ministries
				limit = {
					4466 = { has_province_modifier = tiltaghar_deal_ministries_3_modifier } #Tiltaghar
				}
				4466 = {
					remove_province_triggered_modifier = tiltaghar_deal_ministries_3_modifier
					add_province_triggered_modifier = tiltaghar_deal_ministries_4_modifier
				}	
			}
			if = { #Deal with the Elephant Lords
				limit = {
					4466 = { has_province_modifier = tiltaghar_elephant_lords_1_modifier } #Tiltaghar
				}
				4466 = {
					remove_province_triggered_modifier = tiltaghar_elephant_lords_1_modifier
					add_province_triggered_modifier = tiltaghar_elephant_lords_2_modifier
				}
			}
			else_if = { #Deal with the Elephant Lords
				limit = {
					4466 = { has_province_modifier = tiltaghar_elephant_lords_2_modifier } #Tiltaghar
				}
				4466 = {
					remove_province_triggered_modifier = tiltaghar_elephant_lords_2_modifier
					add_province_triggered_modifier = tiltaghar_elephant_lords_3_modifier
				}
			}
			else = { #Deal with the Elephant Lords
				limit = {
					4466 = { has_province_modifier = tiltaghar_elephant_lords_3_modifier } #Tiltaghar
				}
				4466 = {
					remove_province_triggered_modifier = tiltaghar_elephant_lords_3_modifier
					add_province_triggered_modifier = tiltaghar_elephant_lords_4_modifier
				}	
			}
			if = { #Deal with the Ghankedhen
				limit = {
					OR = {
						has_country_flag = tiltaghar_northern_war_3
						has_country_flag = tiltaghar_northern_war_4
					}
					4466 = { has_province_modifier = tiltaghar_ghankedhen_1_modifier } #Tiltaghar
				}
				4466 = {
					remove_province_triggered_modifier = tiltaghar_ghankedhen_1_modifier
					add_province_triggered_modifier = tiltaghar_ghankedhen_2_modifier
				}
			}
			if = { #Deal with the Brown Orcs
				limit = {
					4466 = { has_province_modifier = tiltaghar_deal_brown_orcs_1_modifier } #Tiltaghar
				}
				4466 = {
					remove_province_triggered_modifier = tiltaghar_deal_brown_orcs_1_modifier
					add_province_triggered_modifier = tiltaghar_deal_brown_orcs_2_modifier
				}
			}
			else_if = { #Deal with the Brown Orcs
				limit = {
					4466 = { has_province_modifier = tiltaghar_deal_brown_orcs_2_modifier } #Tiltaghar
				}
				4466 = {
					remove_province_triggered_modifier = tiltaghar_deal_brown_orcs_2_modifier
					add_province_triggered_modifier = tiltaghar_deal_brown_orcs_3_modifier
				}
			}
			else = { #Deal with the Brown Orcs
				limit = {
					4466 = { has_province_modifier = tiltaghar_deal_brown_orcs_3_modifier } #Tiltaghar
				}
				4466 = {
					remove_province_triggered_modifier = tiltaghar_deal_brown_orcs_3_modifier
					add_province_triggered_modifier = tiltaghar_deal_brown_orcs_4_modifier
				}	
			}
			if = { #Deal with Bhuvauri
				limit = {
					4466 = { has_province_modifier = tiltaghar_deal_bhuvauri_1_modifier } #Tiltaghar
				}
				4466 = {
					remove_province_triggered_modifier = tiltaghar_deal_bhuvauri_1_modifier
					add_province_triggered_modifier = tiltaghar_deal_bhuvauri_2_modifier
				}
			}
			else_if = { #Deal with Bhuvauri
				limit = {
					4466 = { has_province_modifier = tiltaghar_deal_bhuvauri_2_modifier } #Tiltaghar
				}
				4466 = {
					remove_province_triggered_modifier = tiltaghar_deal_bhuvauri_2_modifier
					add_province_triggered_modifier = tiltaghar_deal_bhuvauri_3_modifier
				}
			}
			else = { #Deal with Bhuvauri
				limit = {
					4466 = { has_province_modifier = tiltaghar_deal_bhuvauri_3_modifier } #Tiltaghar
				}
				4466 = {
					remove_province_triggered_modifier = tiltaghar_deal_bhuvauri_3_modifier
					add_province_triggered_modifier = tiltaghar_deal_bhuvauri_4_modifier
				}	
			}
			if = { #Deal with the Dwarves
				limit = {
					4466 = { has_province_modifier = tiltaghar_deal_dwarves_1_modifier } #Tiltaghar
				}
				4466 = {
					remove_province_triggered_modifier = tiltaghar_deal_dwarves_1_modifier
					add_province_triggered_modifier = tiltaghar_deal_dwarves_2_modifier
				}
			}
			else_if = { #Deal with the Dwarves
				limit = {
					4466 = { has_province_modifier = tiltaghar_deal_dwarves_2_modifier } #Tiltaghar
				}
				4466 = {
					remove_province_triggered_modifier = tiltaghar_deal_dwarves_2_modifier
					add_province_triggered_modifier = tiltaghar_deal_dwarves_3_modifier
				}
			}
			else = { #Deal with the Dwarves
				limit = {
					4466 = { has_province_modifier = tiltaghar_deal_dwarves_3_modifier } #Tiltaghar
				}
				4466 = {
					remove_province_triggered_modifier = tiltaghar_deal_dwarves_3_modifier
					add_province_triggered_modifier = tiltaghar_deal_dwarves_4_modifier
				}	
			}
		}
	}
}

#The Hobgoblins are Expelled from Raghajandhi
country_event = {
	id = flavor_tiltaghar.12
	title = flavor_tiltaghar.12.t
	desc = flavor_tiltaghar.12.d
	picture = COURT_eventPicture
	
	fire_only_once = yes
	is_triggered_only = yes
	
	trigger = {
		tag = R08 #Tiltaghar
	}
	
	#Great!
	option = {
		name = flavor_tiltaghar.12.a
		ai_chance = { factor = 100 }

		if = {
			limit = {
				has_country_flag = tiltaghar_northern_war_1
			}
			clr_country_flag = tiltaghar_northern_war_1
			set_country_flag = tiltaghar_northern_war_2
			remove_country_modifier = tiltaghar_northern_war_1_modifier
			add_country_modifier = {
				name = tiltaghar_northern_war_2_modifier
				duration = -1
			}
		}
		else_if = {
			limit = {
				has_country_flag = tiltaghar_northern_war_2
			}
			clr_country_flag = tiltaghar_northern_war_2
			set_country_flag = tiltaghar_northern_war_3
			remove_country_modifier = tiltaghar_northern_war_2_modifier
			add_country_modifier = {
				name = tiltaghar_northern_war_3_modifier
				duration = -1
			}
		}
		else = {
			limit = {
				has_country_flag = tiltaghar_northern_war_3
			}
			clr_country_flag = tiltaghar_northern_war_3
			set_country_flag = tiltaghar_northern_war_4
			remove_country_modifier = tiltaghar_northern_war_3_modifier
			add_country_modifier = {
				name = tiltaghar_northern_war_4_modifier
				duration = -1
			}
		}
		custom_tooltip = tiltaghar_expelled_hobgoblins_tooltip
		hidden_effect = {
			if = { #Deal with the Ministries
				limit = {
					4466 = { has_province_modifier = tiltaghar_deal_ministries_1_modifier } #Tiltaghar
				}
				4466 = {
					remove_province_triggered_modifier = tiltaghar_deal_ministries_1_modifier
					add_province_triggered_modifier = tiltaghar_deal_ministries_2_modifier
				}
			}
			else_if = { #Deal with the Ministries
				limit = {
					4466 = { has_province_modifier = tiltaghar_deal_ministries_2_modifier } #Tiltaghar
				}
				4466 = {
					remove_province_triggered_modifier = tiltaghar_deal_ministries_2_modifier
					add_province_triggered_modifier = tiltaghar_deal_ministries_3_modifier
				}
			}
			else = { #Deal with the Ministries
				limit = {
					4466 = { has_province_modifier = tiltaghar_deal_ministries_3_modifier } #Tiltaghar
				}
				4466 = {
					remove_province_triggered_modifier = tiltaghar_deal_ministries_3_modifier
					add_province_triggered_modifier = tiltaghar_deal_ministries_4_modifier
				}	
			}
			if = { #Deal with the Elephant Lords
				limit = {
					4466 = { has_province_modifier = tiltaghar_elephant_lords_1_modifier } #Tiltaghar
				}
				4466 = {
					remove_province_triggered_modifier = tiltaghar_elephant_lords_1_modifier
					add_province_triggered_modifier = tiltaghar_elephant_lords_2_modifier
				}
			}
			else_if = { #Deal with the Elephant Lords
				limit = {
					4466 = { has_province_modifier = tiltaghar_elephant_lords_2_modifier } #Tiltaghar
				}
				4466 = {
					remove_province_triggered_modifier = tiltaghar_elephant_lords_2_modifier
					add_province_triggered_modifier = tiltaghar_elephant_lords_3_modifier
				}
			}
			else = { #Deal with the Elephant Lords
				limit = {
					4466 = { has_province_modifier = tiltaghar_elephant_lords_3_modifier } #Tiltaghar
				}
				4466 = {
					remove_province_triggered_modifier = tiltaghar_elephant_lords_3_modifier
					add_province_triggered_modifier = tiltaghar_elephant_lords_4_modifier
				}	
			}
			if = { #Deal with the Ghankedhen
				limit = {
					OR = {
						has_country_flag = tiltaghar_northern_war_3
						has_country_flag = tiltaghar_northern_war_4
					}
					4466 = { has_province_modifier = tiltaghar_ghankedhen_1_modifier } #Tiltaghar
				}
				4466 = {
					remove_province_triggered_modifier = tiltaghar_ghankedhen_1_modifier
					add_province_triggered_modifier = tiltaghar_ghankedhen_2_modifier
				}
			}
			if = { #Deal with the Brown Orcs
				limit = {
					4466 = { has_province_modifier = tiltaghar_deal_brown_orcs_1_modifier } #Tiltaghar
				}
				4466 = {
					remove_province_triggered_modifier = tiltaghar_deal_brown_orcs_1_modifier
					add_province_triggered_modifier = tiltaghar_deal_brown_orcs_2_modifier
				}
			}
			else_if = { #Deal with the Brown Orcs
				limit = {
					4466 = { has_province_modifier = tiltaghar_deal_brown_orcs_2_modifier } #Tiltaghar
				}
				4466 = {
					remove_province_triggered_modifier = tiltaghar_deal_brown_orcs_2_modifier
					add_province_triggered_modifier = tiltaghar_deal_brown_orcs_3_modifier
				}
			}
			else = { #Deal with the Brown Orcs
				limit = {
					4466 = { has_province_modifier = tiltaghar_deal_brown_orcs_3_modifier } #Tiltaghar
				}
				4466 = {
					remove_province_triggered_modifier = tiltaghar_deal_brown_orcs_3_modifier
					add_province_triggered_modifier = tiltaghar_deal_brown_orcs_4_modifier
				}	
			}
			if = { #Deal with Bhuvauri
				limit = {
					4466 = { has_province_modifier = tiltaghar_deal_bhuvauri_1_modifier } #Tiltaghar
				}
				4466 = {
					remove_province_triggered_modifier = tiltaghar_deal_bhuvauri_1_modifier
					add_province_triggered_modifier = tiltaghar_deal_bhuvauri_2_modifier
				}
			}
			else_if = { #Deal with Bhuvauri
				limit = {
					4466 = { has_province_modifier = tiltaghar_deal_bhuvauri_2_modifier } #Tiltaghar
				}
				4466 = {
					remove_province_triggered_modifier = tiltaghar_deal_bhuvauri_2_modifier
					add_province_triggered_modifier = tiltaghar_deal_bhuvauri_3_modifier
				}
			}
			else = { #Deal with Bhuvauri
				limit = {
					4466 = { has_province_modifier = tiltaghar_deal_bhuvauri_3_modifier } #Tiltaghar
				}
				4466 = {
					remove_province_triggered_modifier = tiltaghar_deal_bhuvauri_3_modifier
					add_province_triggered_modifier = tiltaghar_deal_bhuvauri_4_modifier
				}	
			}
			if = { #Deal with the Dwarves
				limit = {
					4466 = { has_province_modifier = tiltaghar_deal_dwarves_1_modifier } #Tiltaghar
				}
				4466 = {
					remove_province_triggered_modifier = tiltaghar_deal_dwarves_1_modifier
					add_province_triggered_modifier = tiltaghar_deal_dwarves_2_modifier
				}
			}
			else_if = { #Deal with the Dwarves
				limit = {
					4466 = { has_province_modifier = tiltaghar_deal_dwarves_2_modifier } #Tiltaghar
				}
				4466 = {
					remove_province_triggered_modifier = tiltaghar_deal_dwarves_2_modifier
					add_province_triggered_modifier = tiltaghar_deal_dwarves_3_modifier
				}
			}
			else = { #Deal with the Dwarves
				limit = {
					4466 = { has_province_modifier = tiltaghar_deal_dwarves_3_modifier } #Tiltaghar
				}
				4466 = {
					remove_province_triggered_modifier = tiltaghar_deal_dwarves_3_modifier
					add_province_triggered_modifier = tiltaghar_deal_dwarves_4_modifier
				}	
			}
		}
	}
}

#The Hobgoblins are Expelled from Ghatasak
country_event = {
	id = flavor_tiltaghar.13
	title = flavor_tiltaghar.13.t
	desc = flavor_tiltaghar.13.d
	picture = COURT_eventPicture
	
	fire_only_once = yes
	is_triggered_only = yes
	
	trigger = {
		tag = R08 #Tiltaghar
	}
	
	#Great!
	option = {
		name = flavor_tiltaghar.13.a
		ai_chance = { factor = 100 }

		if = {
			limit = {
				has_country_flag = tiltaghar_northern_war_1
			}
			clr_country_flag = tiltaghar_northern_war_1
			set_country_flag = tiltaghar_northern_war_2
			remove_country_modifier = tiltaghar_northern_war_1_modifier
			add_country_modifier = {
				name = tiltaghar_northern_war_2_modifier
				duration = -1
			}
		}
		else_if = {
			limit = {
				has_country_flag = tiltaghar_northern_war_2
			}
			clr_country_flag = tiltaghar_northern_war_2
			set_country_flag = tiltaghar_northern_war_3
			remove_country_modifier = tiltaghar_northern_war_2_modifier
			add_country_modifier = {
				name = tiltaghar_northern_war_3_modifier
				duration = -1
			}
		}
		else = {
			limit = {
				has_country_flag = tiltaghar_northern_war_3
			}
			clr_country_flag = tiltaghar_northern_war_3
			set_country_flag = tiltaghar_northern_war_4
			remove_country_modifier = tiltaghar_northern_war_3_modifier
			add_country_modifier = {
				name = tiltaghar_northern_war_4_modifier
				duration = -1
			}
		}
		custom_tooltip = tiltaghar_expelled_hobgoblins_tooltip
		hidden_effect = {
			if = { #Deal with the Ministries
				limit = {
					4466 = { has_province_modifier = tiltaghar_deal_ministries_1_modifier } #Tiltaghar
				}
				4466 = {
					remove_province_triggered_modifier = tiltaghar_deal_ministries_1_modifier
					add_province_triggered_modifier = tiltaghar_deal_ministries_2_modifier
				}
			}
			else_if = { #Deal with the Ministries
				limit = {
					4466 = { has_province_modifier = tiltaghar_deal_ministries_2_modifier } #Tiltaghar
				}
				4466 = {
					remove_province_triggered_modifier = tiltaghar_deal_ministries_2_modifier
					add_province_triggered_modifier = tiltaghar_deal_ministries_3_modifier
				}
			}
			else = { #Deal with the Ministries
				limit = {
					4466 = { has_province_modifier = tiltaghar_deal_ministries_3_modifier } #Tiltaghar
				}
				4466 = {
					remove_province_triggered_modifier = tiltaghar_deal_ministries_3_modifier
					add_province_triggered_modifier = tiltaghar_deal_ministries_4_modifier
				}	
			}
			if = { #Deal with the Elephant Lords
				limit = {
					4466 = { has_province_modifier = tiltaghar_elephant_lords_1_modifier } #Tiltaghar
				}
				4466 = {
					remove_province_triggered_modifier = tiltaghar_elephant_lords_1_modifier
					add_province_triggered_modifier = tiltaghar_elephant_lords_2_modifier
				}
			}
			else_if = { #Deal with the Elephant Lords
				limit = {
					4466 = { has_province_modifier = tiltaghar_elephant_lords_2_modifier } #Tiltaghar
				}
				4466 = {
					remove_province_triggered_modifier = tiltaghar_elephant_lords_2_modifier
					add_province_triggered_modifier = tiltaghar_elephant_lords_3_modifier
				}
			}
			else = { #Deal with the Elephant Lords
				limit = {
					4466 = { has_province_modifier = tiltaghar_elephant_lords_3_modifier } #Tiltaghar
				}
				4466 = {
					remove_province_triggered_modifier = tiltaghar_elephant_lords_3_modifier
					add_province_triggered_modifier = tiltaghar_elephant_lords_4_modifier
				}	
			}
			if = { #Deal with the Ghankedhen
				limit = {
					OR = {
						has_country_flag = tiltaghar_northern_war_3
						has_country_flag = tiltaghar_northern_war_4
					}
					4466 = { has_province_modifier = tiltaghar_ghankedhen_1_modifier } #Tiltaghar
				}
				4466 = {
					remove_province_triggered_modifier = tiltaghar_ghankedhen_1_modifier
					add_province_triggered_modifier = tiltaghar_ghankedhen_2_modifier
				}
			}
			if = { #Deal with the Brown Orcs
				limit = {
					4466 = { has_province_modifier = tiltaghar_deal_brown_orcs_1_modifier } #Tiltaghar
				}
				4466 = {
					remove_province_triggered_modifier = tiltaghar_deal_brown_orcs_1_modifier
					add_province_triggered_modifier = tiltaghar_deal_brown_orcs_2_modifier
				}
			}
			else_if = { #Deal with the Brown Orcs
				limit = {
					4466 = { has_province_modifier = tiltaghar_deal_brown_orcs_2_modifier } #Tiltaghar
				}
				4466 = {
					remove_province_triggered_modifier = tiltaghar_deal_brown_orcs_2_modifier
					add_province_triggered_modifier = tiltaghar_deal_brown_orcs_3_modifier
				}
			}
			else = { #Deal with the Brown Orcs
				limit = {
					4466 = { has_province_modifier = tiltaghar_deal_brown_orcs_3_modifier } #Tiltaghar
				}
				4466 = {
					remove_province_triggered_modifier = tiltaghar_deal_brown_orcs_3_modifier
					add_province_triggered_modifier = tiltaghar_deal_brown_orcs_4_modifier
				}	
			}
			if = { #Deal with Bhuvauri
				limit = {
					4466 = { has_province_modifier = tiltaghar_deal_bhuvauri_1_modifier } #Tiltaghar
				}
				4466 = {
					remove_province_triggered_modifier = tiltaghar_deal_bhuvauri_1_modifier
					add_province_triggered_modifier = tiltaghar_deal_bhuvauri_2_modifier
				}
			}
			else_if = { #Deal with Bhuvauri
				limit = {
					4466 = { has_province_modifier = tiltaghar_deal_bhuvauri_2_modifier } #Tiltaghar
				}
				4466 = {
					remove_province_triggered_modifier = tiltaghar_deal_bhuvauri_2_modifier
					add_province_triggered_modifier = tiltaghar_deal_bhuvauri_3_modifier
				}
			}
			else = { #Deal with Bhuvauri
				limit = {
					4466 = { has_province_modifier = tiltaghar_deal_bhuvauri_3_modifier } #Tiltaghar
				}
				4466 = {
					remove_province_triggered_modifier = tiltaghar_deal_bhuvauri_3_modifier
					add_province_triggered_modifier = tiltaghar_deal_bhuvauri_4_modifier
				}	
			}
			if = { #Deal with the Dwarves
				limit = {
					4466 = { has_province_modifier = tiltaghar_deal_dwarves_1_modifier } #Tiltaghar
				}
				4466 = {
					remove_province_triggered_modifier = tiltaghar_deal_dwarves_1_modifier
					add_province_triggered_modifier = tiltaghar_deal_dwarves_2_modifier
				}
			}
			else_if = { #Deal with the Dwarves
				limit = {
					4466 = { has_province_modifier = tiltaghar_deal_dwarves_2_modifier } #Tiltaghar
				}
				4466 = {
					remove_province_triggered_modifier = tiltaghar_deal_dwarves_2_modifier
					add_province_triggered_modifier = tiltaghar_deal_dwarves_3_modifier
				}
			}
			else = { #Deal with the Dwarves
				limit = {
					4466 = { has_province_modifier = tiltaghar_deal_dwarves_3_modifier } #Tiltaghar
				}
				4466 = {
					remove_province_triggered_modifier = tiltaghar_deal_dwarves_3_modifier
					add_province_triggered_modifier = tiltaghar_deal_dwarves_4_modifier
				}	
			}
		}
	}
}

#Cost of War
country_event = {
	id = flavor_tiltaghar.14
	title = flavor_tiltaghar.14.t
	desc = flavor_tiltaghar.14.d
	picture = COURT_eventPicture
	
	fire_only_once = yes
	is_triggered_only = yes
	
	trigger = {
		tag = R08 #Tiltaghar
	}
	
	#Damn
	option = {
		name = flavor_tiltaghar.14.a
		ai_chance = { factor = 100 }
		set_country_flag = tiltaghar_aftermath_war_flag
		clr_country_flag = tiltaghar_northern_war_flag
		clr_country_flag = tiltaghar_northern_war_4
		remove_country_modifier = tiltaghar_northern_war_4_modifier
		add_country_modifier = {
			name = tiltaghar_aftermath_war_development_modifier
			duration = -1
		}
		add_country_modifier = {
			name = tiltaghar_aftermath_war_devastation_modifier
			duration = -1
		}
		add_country_modifier = {
			name = tiltaghar_aftermath_war_unrest_modifier
			duration = -1
		}
		add_country_modifier = {
			name = tiltaghar_aftermath_war_production_modifier
			duration = -1
		}
	}
}

#Deal with Bhuvauri
country_event = {
	id = flavor_tiltaghar.15
	title = flavor_tiltaghar.15.t
	desc = flavor_tiltaghar.15.d
	picture = COURT_eventPicture
	
	fire_only_once = yes
	is_triggered_only = yes
	
	trigger = {
		tag = R08 #Tiltaghar
	}
	
	#Accept
	option = {
		name = flavor_tiltaghar.15.a
		ai_chance = { factor = 100 }
		add_treasury = -2500
		clr_country_flag = tiltaghar_deal_bhuvauri_accepted_flag
	}

	#Decline
	option = {
		name = flavor_tiltaghar.15.b
		ai_chance = { factor = 100 }
		add_country_modifier = {
			name = tiltaghar_deal_bhuvauri_negated
			duration = 18250
		}
		clr_country_flag = tiltaghar_deal_bhuvauri_accepted_flag
	}
}

#Deal with Brown Orcs
country_event = {
	id = flavor_tiltaghar.16
	title = flavor_tiltaghar.16.t
	desc = flavor_tiltaghar.16.d
	picture = COURT_eventPicture
	
	fire_only_once = yes
	is_triggered_only = yes
	
	trigger = {
		tag = R08 #Tiltaghar
	}
	
	#Accept
	option = {
		name = flavor_tiltaghar.16.a
		ai_chance = { factor = 100 }
		
		4538 = { #Tamvihar
			cede_province = R63 #Thunderfist
			add_core = R63 #Thunderfist
			change_culture = brown_orc
			change_religion = old_dookan
		}
		4539 = { #Taraghata
			cede_province = R63 #Thunderfist
			add_core = R63
			change_culture = brown_orc
			change_religion = old_dookan
		}
		4541 = { #Tapamadh
			cede_province = R63 #Thunderfist
			add_core = R63 #Thunderfist
			change_culture = brown_orc
			change_religion = old_dookan
		}
		create_subject = { 
			subject_type = autonomous_vassal
			subject = R63 #Thunderfist
		}
		clr_country_flag = tiltaghar_deal_brown_orcs_accepted_flag
	}

	#Decline
	option = {
		name = flavor_tiltaghar.16.b
		ai_chance = { factor = 100 }
		
		4538 = { #Tamvihar
			add_core = R63 #Thunderfist
			spawn_rebels = {
				type = nationalist_rebels
				size = 4
				culture = brown_orc
			}
		}
		4539 = { #Taraghata
			add_core = R63 #Thunderfist
			spawn_rebels = {
				type = nationalist_rebels
				size = 4
				culture = brown_orc
			}
		}
		4541 = { #Tapamadh
			add_core = R63 #Thunderfist
			spawn_rebels = {
				type = nationalist_rebels
				size = 4
				culture = brown_orc
			}
		}
		clr_country_flag = tiltaghar_deal_brown_orcs_accepted_flag
	}
}

#Deal with the Ministries
country_event = {
	id = flavor_tiltaghar.17
	title = flavor_tiltaghar.17.t
	desc = flavor_tiltaghar.17.d
	picture = COURT_eventPicture
	
	fire_only_once = yes
	is_triggered_only = yes
	
	trigger = {
		tag = R08 #Tiltaghar
	}
	
	#Accept
	option = {
		name = flavor_tiltaghar.17.a
		ai_chance = { factor = 100 }
		
		set_estate_privilege = estate_raj_ministries_tiltaghar_deal
		clr_country_flag = tiltaghar_deal_ministries_accepted_flag
	}

	#Decline
	option = {
		name = flavor_tiltaghar.17.b
		ai_chance = { factor = 100 }
		add_country_modifier = {
			name = tiltaghar_deal_ministries_negated
			duration = 18250
		}
		clr_country_flag = tiltaghar_deal_ministries_accepted_flag
	}
}

#Deal with the Elephant Lords
country_event = {
	id = flavor_tiltaghar.18
	title = flavor_tiltaghar.18.t
	desc = flavor_tiltaghar.18.d
	picture = COURT_eventPicture
	
	fire_only_once = yes
	is_triggered_only = yes
	
	trigger = {
		tag = R08 #Tiltaghar
	}
	
	#Accept
	option = {
		name = flavor_tiltaghar.18.a
		ai_chance = { factor = 100 }
		
		shamakhad_region = {
			limit = {
				owned_by = root
				has_terrain = grasslands
			}
			add_base_manpower = -1
		}
		clr_country_flag = tiltaghar_deal_elephant_lords_accepted_flag
	}

	#Decline
	option = {
		name = flavor_tiltaghar.18.b
		ai_chance = { factor = 100 }
		every_known_country = {
			limit = {
				OR = {
					has_reform = prabhi_reform
					has_reform = senapti_reform
				}
			}
			add_opinion = {
				who = R08 #Tiltaghar
				modifier = tiltaghar_deal_elephant_lords_rejected_opinion
			}
		}
		clr_country_flag = tiltaghar_deal_elephant_lords_accepted_flag
	}
}

#Deal with the Ghankedhen
country_event = {
	id = flavor_tiltaghar.19
	title = flavor_tiltaghar.19.t
	desc = flavor_tiltaghar.19.d
	picture = COURT_eventPicture
	
	fire_only_once = yes
	is_triggered_only = yes
	
	trigger = {
		tag = R08 #Tiltaghar
	}
	
	#Accept
	option = {
		name = flavor_tiltaghar.19.a
		ai_chance = { factor = 100 }
		
		shamakhad_region = {
			limit = {
				owned_by = root
				has_terrain = city_terrain
			}
			add_base_production = -2
		}
		clr_country_flag = tiltaghar_deal_ghankedhen_accepted_flag
	}

	#Decline
	option = {
		name = flavor_tiltaghar.19.b
		ai_chance = { factor = 100 }
		add_country_modifier = {
			name = tiltaghar_deal_ghankedhen_negated
			duration = 18250
		}
		clr_country_flag = tiltaghar_deal_ghankedhen_accepted_flag
	}
}

#The Rebirth of the Raj
country_event = {
	id = flavor_tiltaghar.20
	title = flavor_tiltaghar.20.t
	desc = flavor_tiltaghar.20.d
	picture = COURT_eventPicture
	
	fire_only_once = yes
	is_triggered_only = yes
	
	trigger = {
		tag = R08 #Tiltaghar
	}
	
	#Accept
	option = {
		name = flavor_tiltaghar.20.a
		ai_chance = { factor = 100 }
		
		add_government_reform = tiltaghar_grand_vizier_reform
	}
}