namespace = halfling_tolerance_events

# Event organizer for the halfling tolerance events - should be a huge improvement to performance - having 1 overall check for having the minority instead of one for EACH new event that gets added
country_event = {
	id = halfling_tolerance_events.0
	title = race_setup_events.1.d
	desc = race_setup_events.1.d
	picture = BORDER_TENSION_eventPicture

	hidden = yes
	
	is_triggered_only = yes
	trigger = {
		NOT = { culture_group = halfling }
		any_owned_province = {
			has_halfling_minority_trigger = yes
		}
	}
	
	mean_time_to_happen = {
		days = 1
		modifier = {
			factor = 10
			has_country_modifier = racial_focus_halfling
		}
	}

	option = {
		random_list = {
			# Low quality goods
			1 = {
				trigger = {
					any_owned_province = {
						has_halfling_minority_trigger = yes
						NOT = { has_province_modifier = halfling_not_allowed_to_trade }
						NOT = { has_province_modifier = halfling_low_quality_wares }
						OR = {
							trade_goods = grain
							trade_goods = livestock
							trade_goods = fish
							trade_goods = wine
							trade_goods = sugar
							trade_goods = coffee
							trade_goods = tobacco
							trade_goods = cocoa
							trade_goods = dyes
						}
					}
				}
				modifier = {
					factor = 2
					low_tolerance_halfling_race_trigger = yes
				}
				modifier = {
					factor = 0.5
					high_tolerance_halfling_race_trigger = yes
				}
				country_event = {
					id = halfling_tolerance_events.1
				}
			}
			# Halflings demand compensation
			1 = {
				trigger = {
					any_owned_province = {
						NOT = { has_province_modifier = halfling_was_not_given_compensation }
						has_halfling_minority_trigger = yes
						OR = {
							trade_goods = grain
							trade_goods = livestock
							trade_goods = dyes
							province_trade_power = 10
						}
					}
				}
				modifier = {
					factor = 0.9
					low_tolerance_halfling_race_trigger = yes
				}
				modifier = {
					factor = 1.1
					high_tolerance_halfling_race_trigger = yes
				}
				country_event = {
					id = halfling_tolerance_events.2
				}
			}
			# Halfling gift
			1 = {
				trigger = {
					any_owned_province = {
						NOT = { has_province_modifier = halfling_angry_over_not_accepting_gift }
						NOT = { has_province_modifier = halfling_punishment_of_local_traitors }
						has_halfling_minority_trigger = yes
					}
				}
				modifier = {
					factor = 1.5
					high_tolerance_halfling_race_trigger = yes
				}
				modifier = {
					factor = 2
					stability = 1
				}
				country_event = {
					id = halfling_tolerance_events.3
				}
			}
			# Halfling minister
			1 = {
				modifier = {
					factor = 1.5
					medium_tolerance_halfling_race_trigger = yes
				}
				modifier = {
					factor = 2
					high_tolerance_halfling_race_trigger = yes
				}
				country_event = {
					id = halfling_tolerance_events.4
				}
			}
			# halfling crime runs rampant
			1 = {
				trigger = {
					any_owned_province = {
						has_halfling_minority_trigger = yes
						NOT = { has_province_modifier = high_halfling_crime }
					}
				}
				modifier = {
					factor = 2
					low_tolerance_halfling_race_trigger = yes
				}
				modifier = {
					factor = 2
					NOT = { stability = 0 }
				}
				country_event = {
					id = halfling_tolerance_events.5
				}
			}
			# Halfling food festival
			1 = {
				trigger = {
					any_owned_province = {
						has_halfling_minority_trigger = yes
						NOT = { has_province_modifier = halfling_food_festival }
					}
				}
				modifier = {
					factor = 1.5
					high_tolerance_halfling_race_trigger = yes
				}
				modifier = {
					factor = 1.5
					medium_tolerance_halfling_race_trigger = yes
				}
				country_event = {
					id = halfling_tolerance_events.6
				}
			}
			# Halfling overpopulation
			1 = {
				trigger = {
					any_owned_province = {
						OR = {
							has_large_halfling_minority_trigger = yes
							has_halfling_majority_trigger = yes
						}
						any_neighbor_province = {
							is_city = yes
						}
					}
				}
				modifier = {
					factor = 1.5
					any_owned_province = {
						has_halfling_majority_trigger = yes
					}
				}
				modifier = {
					factor = 1.5
					stability = 1
				}
				country_event = {
					id = halfling_tolerance_events.7
				}
			}
			# Cheap workers
			1 = {
				trigger = {
					NOT = { culture_group = halfling }
					any_owned_province = {
						has_halfling_minority_trigger = yes
						NOT = { has_province_modifier = cheap_halfling_labour }	
					}
				}
				modifier = {
					factor = 2
					low_tolerance_halfling_race_trigger = yes
				}
				country_event = {
					id = halfling_tolerance_events.8
				}
			}
		}
	}
}

# Low quality goods (estate) - old event adapted
country_event = {
	id = halfling_tolerance_events.1
	title = halfling_tolerance_events.1.t
	desc = halfling_tolerance_events.1.d
	picture = MERCHANTS_TALKING_eventPicture
	GOTO = poor_wares_halfling_province
	
	is_triggered_only = yes
	
	immediate = {
		hidden_effect = {
			random_owned_province = {
				limit = {
					NOT = { has_province_modifier = halfling_not_allowed_to_trade }
					NOT = { has_province_modifier = halfling_low_quality_wares }
					has_halfling_minority_trigger = yes
					OR = {
						trade_goods = grain
						trade_goods = livestock
						trade_goods = fish
						trade_goods = wine
						trade_goods = sugar
						trade_goods = coffee
						trade_goods = tobacco
						trade_goods = cocoa
						trade_goods = dyes
					}
				}
				save_event_target_as = poor_wares_halfling_province
			}
			random_owned_province = {
				limit = {
					NOT = { has_province_modifier = halfling_not_allowed_to_trade }
					NOT = { has_province_modifier = halfling_low_quality_wares }
					has_halfling_minority_trigger = yes
					development = 6
					OR = {
						trade_goods = grain
						trade_goods = livestock
						trade_goods = fish
						trade_goods = wine
						trade_goods = tobacco
						trade_goods = dyes
					}
				}
				save_event_target_as = poor_wares_halfling_province
			}
			random_owned_province = {
				limit = {
					NOT = { has_province_modifier = halfling_not_allowed_to_trade }
					NOT = { has_province_modifier = halfling_low_quality_wares }
					has_halfling_minority_trigger = yes
					development = 12
					OR = {
						trade_goods = grain
						trade_goods = livestock
						trade_goods = dyes
					}
				}
				save_event_target_as = poor_wares_halfling_province
			}
		}
	}
	
	option = {	# The merchants are right
		name = halfling_tolerance_events.1.a
		ai_chance = {
			factor = 50
			modifier = {
				factor = 0.5
				wants_to_maintain_tolerance_halfling = yes
			}
			modifier = {
				factor = 0.1
				wants_to_increase_tolerance_halfling = yes
			}
		}
		add_dip_power = -40
		small_decrease_of_halfling_tolerance_effect = yes
		event_target:poor_wares_halfling_province = {
			area = {
				limit = {
					owned_by = ROOT
					NOT = { has_province_modifier = halfling_not_allowed_to_trade }
					NOT = { has_province_modifier = halfling_low_quality_wares }
				}
				add_province_modifier = {
					name = halfling_not_allowed_to_trade
					duration = 730
				}
			}
		}
		if = {
			limit = {
				has_estate = estate_burghers
			}
			add_estate_loyalty = {
				estate = estate_burghers
				loyalty = 5
			}
		}
		else_if = {
			limit = {
				has_estate = estate_castonath_patricians
			}
			add_estate_loyalty = {
				estate = estate_castonath_patricians
				loyalty = 5
			}
		}
	}
	
	option = {	# Let them trade
		name = halfling_tolerance_events.1.b
		ai_chance = {
			factor = 50
			modifier = {
				factor = 0.5
				has_dlc = "The Cossacks"
				has_estate = estate_burghers
				NOT = {
					estate_loyalty = {
						estate = estate_burghers
						loyalty = 40
					}
				}
			}
			modifier = {
				factor = 0.5
				wants_to_maintain_tolerance_halfling = yes
			}
			modifier = {
				factor = 0.1
				wants_to_decrease_tolerance_halfling = yes
			}
		}
		add_prestige = -5
		small_increase_of_halfling_tolerance_effect = yes
		event_target:poor_wares_halfling_province = {
			area = {
				limit = {
					owned_by = ROOT
					NOT = { has_province_modifier = halfling_not_allowed_to_trade }
					NOT = { has_province_modifier = halfling_low_quality_wares }
				}
				add_province_modifier = {
					name = halfling_low_quality_wares
					duration = 730
				}
			}
		}
		reduce_estate_burghers_loyalty_effect = yes
	}
	
	option = {	# We need to confiscate their goods
		name = halfling_tolerance_events.1.c
		trigger = {
			OR = {
				ruler_has_personality = embezzler_personality
				ruler_has_personality = greedy_personality
			}
		}
						highlight = yes
		ai_chance = {
			factor = 100
			modifier = {
				factor = 0.5
				wants_to_maintain_tolerance_halfling = yes
			}
			modifier = {
				factor = 0.01
				wants_to_increase_tolerance_halfling = yes
			}
		}
		add_years_of_income = 0.05
		medium_decrease_of_halfling_tolerance_effect = yes
		event_target:poor_wares_halfling_province = {
			add_unrest = 2
			area = {
				limit = {
					owned_by = ROOT
					NOT = { has_province_modifier = halfling_not_allowed_to_trade }
					NOT = { has_province_modifier = halfling_low_quality_wares }
				}
				add_province_modifier = {
					name = halfling_not_allowed_to_trade
					duration = 730
				}
			}
		}
		if = {
			limit = {
				has_estate = estate_burghers
			}
			add_estate_loyalty = {
				estate = estate_burghers
				loyalty = 5
			}
		}
		else_if = {
			limit = {
				has_estate = estate_castonath_patricians
			}
			add_estate_loyalty = {
				estate = estate_castonath_patricians
				loyalty = 5
			}
		}
	}
	
	option = {	# Compesensate both parties to avoid further issues
		name = halfling_tolerance_events.1.e
		trigger = {
			OR = {
				ruler_has_personality = just_personality
				ruler_has_personality = kind_hearted_personality
			}
		}
						highlight = yes
		ai_chance = {
			factor = 100
			modifier = {
				factor = 0.5
				has_dlc = "The Cossacks"
				has_estate = estate_burghers
				NOT = {
					estate_loyalty = {
						estate = estate_burghers
						loyalty = 40
					}
				}
			}
			modifier = {
				factor = 0.5
				wants_to_maintain_tolerance_halfling = yes
			}
			modifier = {
				factor = 0.1
				wants_to_decrease_tolerance_halfling = yes
			}
		}
		add_years_of_income = -0.15
		small_increase_of_halfling_tolerance_effect = yes
		if = {
			limit = {
				has_estate = estate_burghers
			}
			add_estate_loyalty = {
				estate = estate_burghers
				loyalty = 5
			}
		}
		else_if = {
			limit = {
				has_estate = estate_castonath_patricians
			}
			add_estate_loyalty = {
				estate = estate_castonath_patricians
				loyalty = 5
			}
		}
	}
	
	option = {	# Get rid of the complainers
		name = halfling_tolerance_events.1.f
		trigger = {
			OR = {
				ruler_has_personality = cruel_personality
				ruler_has_personality = malevolent_personality
			}
		}
						highlight = yes
		ai_chance = {
			factor = 100
			modifier = {
				factor = 0.5
				has_dlc = "The Cossacks"
				has_estate = estate_burghers
				NOT = {
					estate_loyalty = {
						estate = estate_burghers
						loyalty = 40
					}
				}
			}
		}
		add_mil_power = -60
		reduce_estate_burghers_loyalty_effect = yes
	}
}

# Old event - need review for inclusion
country_event = {
	id = halfling_tolerance_events.2
	title = halfling_tolerance_events.2.t
	desc = halfling_tolerance_events.2.d
	picture = ANGRY_MOB_eventPicture
	
	is_triggered_only = yes

	immediate = {
		hidden_effect = {
			random_owned_province = {
				limit = {
					has_halfling_minority_trigger = yes
					NOT = { has_province_modifier = halfling_was_not_given_compensation }
				}
				save_event_target_as = halfling_prov
			}
		}
	}
	
	option = {	# Greedy little...
		name = halfling_tolerance_events.2.a
		ai_chance = {
			factor = 50
			modifier = {
				factor = 0.5
				wants_to_maintain_tolerance_halfling = yes
			}
			modifier = {
				factor = 0.1
				wants_to_increase_tolerance_halfling = yes
			}
		}
		small_decrease_of_halfling_tolerance_effect = yes
		event_target:halfling_prov = {
			area = {
				limit = { has_any_halfling_pop_trigger = yes }
				add_province_modifier = {
					name = halfling_was_not_given_compensation
					duration = 1825
				}
			}
		}
	}
	
	option = {	# Comply with their demands
		name = halfling_tolerance_events.2.b
		ai_chance = {
			factor = 50
			modifier = {
				factor = 0.5
				wants_to_decrease_tolerance_halfling = yes
			}
		}
		add_prestige = -10
		add_years_of_income = -0.5
	}
	
	option = {	# We'll show them!
		name = halfling_tolerance_events.2.c
		trigger = {
			OR = {
				ruler_has_personality = cruel_personality
				ruler_has_personality = malevolent_personality
				ruler_has_personality = bold_fighter_personality
			}
		}
								highlight = yes
		ai_chance = {
			factor = 100
			modifier = {
				factor = 0.5
				OR = {
					NOT = { army_size_percentage = 0.25 }
					revolt_percentage = 0.1
				}
			}
			modifier = {
				factor = 0.5
				wants_to_maintain_tolerance_halfling = yes
			}
			modifier = {
				factor = 0.1
				wants_to_increase_tolerance_halfling = yes
			}
		}
		add_mil_power = -50
		small_decrease_of_halfling_tolerance_effect = yes
		random_owned_province = {
			limit = {
				NOT = { has_province_modifier = halfling_was_not_given_compensation }
				has_halfling_minority_trigger = yes
				OR = {
					trade_goods = grain
					trade_goods = livestock
				}
			}
			spawn_rebels = {
				type = anti_tax_rebels
				size = 1
			}
		}
		every_owned_province = {
			limit = {
				NOT = { has_province_modifier = halfling_was_not_given_compensation }
				has_halfling_minority_trigger = yes
				OR = {
					trade_goods = grain
					trade_goods = livestock
					trade_goods = dyes
					province_trade_power = 10
				}
			}
			add_unrest = 2
			add_province_modifier = {
				name = halfling_was_not_given_compensation
				duration = 1095
			}
		}
	}
	
	option = {	# Let us find a compromise
		name = halfling_tolerance_events.2.e
		trigger = {
			OR = {
				ruler_has_personality = fierce_negotiator_personality
				ruler_has_personality = charismatic_negotiator_personality
				ruler_has_personality = silver_tongue_personality
			}
		}
								highlight = yes
		ai_chance = {
			factor = 100
			modifier = {
				factor = 0.5
				wants_to_decrease_tolerance_halfling = yes
			}
		}
		add_dip_power = -25
		add_years_of_income = -0.25
	}
}

# Old event - need review for inclusion
country_event = {
	id = halfling_tolerance_events.3
	title = halfling_tolerance_events.3.t
	desc = halfling_tolerance_events.3.d
	picture = COURT_eventPicture

	is_triggered_only = yes
	
	immediate = {
		hidden_effect = {
			random_owned_province = {
				limit = {
					NOT = { has_province_modifier = halfling_angry_over_not_accepting_gift }
					has_halfling_minority_trigger = yes
				}
				save_event_target_as = gift_halfling_province
			}
			random_owned_province = {
				limit = {
					NOT = { has_province_modifier = halfling_angry_over_not_accepting_gift }
					has_halfling_minority_trigger = yes
					is_in_capital_area = yes
				}
				save_event_target_as = gift_halfling_province
			}
			random_owned_province = {
				limit = {
					NOT = { has_province_modifier = halfling_angry_over_not_accepting_gift }
					has_halfling_minority_trigger = yes
					any_neighbor_province = {
						owned_by = ROOT
						is_capital = yes
					}
				}
				save_event_target_as = gift_halfling_province
			}
		}
	}
	
	option = {	# Accept their gift...
		name = halfling_tolerance_events.3.a
		ai_chance = {
			factor = 50
			modifier = {
				factor = 0.1
				wants_to_increase_tolerance_halfling = yes
			}
		}
		reduce_legitimacy_small_effect = yes
		add_prestige = -2
		add_years_of_income = 0.02
	}
	
	option = {	# This is indeed suspicious...
		name = halfling_tolerance_events.3.b
		ai_chance = {
			factor = 50
			modifier = {
				factor = 0.8
				event_target:gift_halfling_province = { unrest = 1 }
			}
			modifier = {
				factor = 0.5
				wants_to_maintain_tolerance_halfling = yes
			}
			modifier = {
				factor = 0.1
				wants_to_increase_tolerance_halfling = yes
			}
		}
		small_decrease_of_halfling_tolerance_effect = yes
		event_target:gift_halfling_province = {
			add_province_modifier = {
				name = halfling_angry_over_not_accepting_gift
				duration = 1460
			}
		}
	}
	
	option = {	# We should reward them for their generousity!
		name = halfling_tolerance_events.3.c
		ai_chance = {
			factor = 50
			modifier = {
				factor = 0.5
				wants_to_maintain_tolerance_halfling = yes
			}
			modifier = {
				factor = 0.1
				wants_to_decrease_tolerance_halfling = yes
			}
		}
		add_dip_power = 10
		add_years_of_income = -0.025
		small_increase_of_halfling_tolerance_effect = yes
		event_target:gift_halfling_province = {
			add_unrest = -1
		}
	}
	
	option = {	# ...this has to be a trap! Guards get them!
		name = halfling_tolerance_events.3.e
		trigger = {
			ruler_has_personality = craven_personality
		}
				highlight = yes
		ai_chance = {
			factor = 100
			modifier = {
				factor = 0.8
				event_target:gift_halfling_province = { unrest = 1 }
			}
			modifier = {
				factor = 0.5
				wants_to_maintain_tolerance_halfling = yes
			}
			modifier = {
				factor = 0.1
				wants_to_increase_tolerance_halfling = yes
			}
		}
		add_mil_power = -10
		small_decrease_of_halfling_tolerance_effect = yes
		event_target:gift_halfling_province = {
			add_province_modifier = {
				name = halfling_punishment_of_local_traitors
				duration = 730
			}
		}
	}
}

# Recruit Halfling Minister
country_event = {
	id = halfling_tolerance_events.4
	title = halfling_tolerance_events.4.t
	desc = halfling_tolerance_events.4.d
	picture = MERCHANTS_TALKING_eventPicture
	
	is_triggered_only = yes

	# If you have a halfling culture province, that's the one the advisor comes from
	immediate = {
		hidden_effect = {
			if = {
				limit = {
					any_owned_province = {
						culture_group = halfling
					}
				}
				random_owned_province = {
					limit = { culture_group = halfling }
					save_event_target_as = halfling_advisor_culture_province
				}
				set_country_flag = halfling_advisor_culture_set
			}
		}
	}

	# Recruit the halfling
	option = {
		name = halfling_tolerance_events.4.a
		ai_chance = {
			factor = 50
			modifier = {
				factor = 0.5
				wants_to_maintain_tolerance_halfling = yes
			}
			modifier = {
				factor = 0.1
				wants_to_decrease_tolerance_halfling = yes
			}
		}
		small_increase_of_halfling_tolerance_effect = yes
		if = {
			limit = { has_country_flag = halfling_advisor_culture_set }
			if = {
				limit = { monthly_income = 50 }
				random_list = {
					1 = {
						define_advisor = {
							type = trader
							culture = event_target:halfling_advisor_culture_province
							religion = event_target:halfling_advisor_culture_province
							skill = 3
							discount = yes
						}
					}
					1 = {
						define_advisor = {
							type = quartermaster
							culture = event_target:halfling_advisor_culture_province
							religion = event_target:halfling_advisor_culture_province
							skill = 3
							discount = yes
						}
					}
				}
			}
			else_if = {
				limit = { monthly_income = 25 }
				random_list = {
					1 = {
						define_advisor = {
							type = trader
							culture = event_target:halfling_advisor_culture_province
							religion = event_target:halfling_advisor_culture_province
							skill = 2
							discount = yes
						}
					}
					1 = {
						define_advisor = {
							type = quartermaster
							culture = event_target:halfling_advisor_culture_province
							religion = event_target:halfling_advisor_culture_province
							skill = 2
							discount = yes
						}
					}
				}
			}
			else = {
				random_list = {
					1 = {
						define_advisor = {
							type = trader
							culture = event_target:halfling_advisor_culture_province
							religion = event_target:halfling_advisor_culture_province
							skill = 1
							discount = yes
						}
					}
					1 = {
						define_advisor = {
							type = quartermaster
							culture = event_target:halfling_advisor_culture_province
							religion = event_target:halfling_advisor_culture_province
							skill = 1
							discount = yes
						}
					}
				}
			}
		}
		else_if = {
			limit = { 
				capital_scope = {
					OR = {
						region = lencenor_region
						area = lorenans_reach_area
						area = roysfort_area
						area = applefields_area
						area = thomsbridge_area
					}
				} 
			}
			if = {
				limit = { monthly_income = 50 }
				random_list = {
					1 = {
						define_advisor = {
							type = trader
							culture = redfoot_halfling
							skill = 3
							discount = yes
						}
					}
					1 = {
						define_advisor = {
							type = quartermaster
							culture = redfoot_halfling
							skill = 3
							discount = yes
						}
					}
				}
			}
			else_if = {
				limit = { monthly_income = 25 }
				random_list = {
					1 = {
						define_advisor = {
							type = trader
							culture = redfoot_halfling
							skill = 2
							discount = yes
						}
					}
					1 = {
						define_advisor = {
							type = quartermaster
							culture = redfoot_halfling
							skill = 2
							discount = yes
						}
					}
				}
			}
			else = {
				random_list = {
					1 = {
						define_advisor = {
							type = trader
							culture = redfoot_halfling
							skill = 1
							discount = yes
						}
					}
					1 = {
						define_advisor = {
							type = quartermaster
							culture = redfoot_halfling
							skill = 1
							discount = yes
						}
					}
				}
			}
		}
		else_if = {
			limit = { 
				capital_scope = {
					superregion = escann_superregion
				} 
			}
			if = {
				limit = { monthly_income = 50 }
				random_list = {
					1 = {
						define_advisor = {
							type = trader
							culture = newfoot_halfling
							skill = 3
							discount = yes
						}
					}
					1 = {
						define_advisor = {
							type = quartermaster
							culture = newfoot_halfling
							skill = 3
							discount = yes
						}
					}
				}
			}
			else_if = {
				limit = { monthly_income = 25 }
				random_list = {
					1 = {
						define_advisor = {
							type = trader
							culture = newfoot_halfling
							skill = 2
							discount = yes
						}
					}
					1 = {
						define_advisor = {
							type = quartermaster
							culture = newfoot_halfling
							skill = 2
							discount = yes
						}
					}
				}
			}
			else = {
				random_list = {
					1 = {
						define_advisor = {
							type = trader
							culture = newfoot_halfling
							skill = 1
							discount = yes
						}
					}
					1 = {
						define_advisor = {
							type = quartermaster
							culture = newfoot_halfling
							skill = 1
							discount = yes
						}
					}
				}
			}
		}
		else_if = {
			limit = { 
				capital_scope = {
					OR = {
						area = the_borders_area
						area = norley_area
						area = pearpoint_area
						area = lorentish_approach_area
						region = alenic_frontier_region
						region = dragon_coast_region
					}
				} 
			}
			if = {
				limit = { monthly_income = 50 }
				random_list = {
					1 = {
						define_advisor = {
							type = trader
							culture = bluefoot_halfling
							skill = 3
							discount = yes
						}
					}
					1 = {
						define_advisor = {
							type = quartermaster
							culture = bluefoot_halfling
							skill = 3
							discount = yes
						}
					}
				}
			}
			else_if = {
				limit = { monthly_income = 25 }
				random_list = {
					1 = {
						define_advisor = {
							type = trader
							culture = bluefoot_halfling
							skill = 2
							discount = yes
						}
					}
					1 = {
						define_advisor = {
							type = quartermaster
							culture = bluefoot_halfling
							skill = 2
							discount = yes
						}
					}
				}
			}
			else = {
				random_list = {
					1 = {
						define_advisor = {
							type = trader
							culture = bluefoot_halfling
							skill = 1
							discount = yes
						}
					}
					1 = {
						define_advisor = {
							type = quartermaster
							culture = bluefoot_halfling
							skill = 1
							discount = yes
						}
					}
				}
			}
		}
		else = {
			if = {
				limit = { monthly_income = 50 }
				random_list = {
					1 = {
						define_advisor = {
							type = trader
							culture = imperial_halfling
							skill = 3
							discount = yes
						}
					}
					1 = {
						define_advisor = {
							type = quartermaster
							culture = imperial_halfling
							skill = 3
							discount = yes
						}
					}
				}
			}
			else_if = {
				limit = { monthly_income = 25 }
				random_list = {
					1 = {
						define_advisor = {
							type = trader
							culture = imperial_halfling
							skill = 2
							discount = yes
						}
					}
					1 = {
						define_advisor = {
							type = quartermaster
							culture = imperial_halfling
							skill = 2
							discount = yes
						}
					}
				}
			}
			else = {
				random_list = {
					1 = {
						define_advisor = {
							type = trader
							culture = imperial_halfling
							skill = 1
							discount = yes
						}
					}
					1 = {
						define_advisor = {
							type = quartermaster
							culture = imperial_halfling
							skill = 1
							discount = yes
						}
					}
				}
			}
		}
	}

	# A true exemplar of their race
	option = {
		name = halfling_tolerance_events.4.b
		ai_chance = {
			factor = 50
			modifier = {
				factor = 2
				wants_to_increase_tolerance_halfling = yes
			}
		}
		medium_increase_of_halfling_tolerance_effect = yes
	}

	# We dun give a shit
	option = {
		name = halfling_tolerance_events.4.c
		ai_chance = {
			factor = 50
			modifier = {
				factor = 2
				wants_to_decrease_tolerance_halfling = yes
			}
		}
		small_decrease_of_halfling_tolerance_effect = yes
	}

	after = {
		clr_country_flag = halfling_advisor_culture_set
	}
}

# Halfling crime runs rampant
country_event = {
	id = halfling_tolerance_events.5
	title = halfling_tolerance_events.5.t
	desc = halfling_tolerance_events.5.d
	picture = ASSASSINATION_eventPicture
	GOTO = high_halfling_crime_province

	is_triggered_only = yes

	immediate = {
		hidden_effect = {
			random_owned_province = {
				limit = {
					has_halfling_minority_trigger = yes
					NOT = { has_province_modifier = high_halfling_crime }
				}
				save_event_target_as = high_halfling_crime_province
			}
		}
	}
	
	# Crime is crime
	option = {
		name = halfling_tolerance_events.5.a
		ai_chance = {
			factor = 50
			modifier = {
				factor = 0.8
				wants_to_decrease_tolerance_halfling = yes
			}
		}
		small_increase_of_halfling_tolerance_effect = yes
		event_target:high_halfling_crime_province = {
			add_province_modifier = {
				name = high_halfling_crime
				duration = 730
			}
		}
	}
	# Double the guards!
	option = {
		name = halfling_tolerance_events.5.b
		ai_chance = {
			factor = 50
			modifier = {
				factor = 0.8
				wants_to_increase_tolerance_halfling = yes
			}
		}
		add_mil_power = -20
		small_decrease_of_halfling_tolerance_effect = yes
		event_target:high_halfling_crime_province = {
			add_province_modifier = {
				name = high_halfling_crime
				duration = 730
			}
		}
	}
	# All halflings are thieves! Arrest them all!
	option = {
		name = halfling_tolerance_events.5.c
		ai_chance = {
			factor = 50
			modifier = {
				factor = 0.1
				wants_to_increase_tolerance_halfling = yes
			}
		}
		large_decrease_of_halfling_tolerance_effect = yes
		event_target:high_halfling_crime_province = {
			add_province_modifier = {
				name = high_halfling_crime
				duration = 365
			}
		}
	}
	# Make a deal with them
	option = {
		name = halfling_tolerance_events.5.e
		trigger = {
			OR = {
				ruler_has_personality = greedy_personality
				ruler_has_personality = embezzler_personality
			}
		}
		highlight = yes
						ai_chance = {
			factor = 50
			modifier = {
				factor = 0.1
				wants_to_decrease_tolerance_halfling = yes
			}
		}
		medium_increase_of_halfling_tolerance_effect = yes
		event_target:high_halfling_crime_province = {
			add_province_modifier = {
				name = high_halfling_crime
				duration = 1825
			}
		}
		add_years_of_income = 0.3
	}
}

# Halfling food festival
country_event = {
	id = halfling_tolerance_events.6
	title = halfling_tolerance_events.6.t
	desc = halfling_tolerance_events.6.d
	picture = FEAST_eventPicture
	GOTO = halfling_food_festival_province

	is_triggered_only = yes

	immediate = {
		hidden_effect = {
			random_owned_province = {
				limit = {
					has_halfling_minority_trigger = yes
					NOT = { has_province_modifier = halfling_food_festival }
				}
				save_event_target_as = halfling_food_festival_province
			}
		}
	}
	
	# Support the festival
	option = {
		name = halfling_tolerance_events.6.a
		ai_chance = {
			factor = 50
			modifier = {
				factor = 0.5
				NOT = { years_of_income = 0.3 }
			}
			modifier = {
				factor = 0.8
				NOT = { years_of_income = 0.6 }
			}
			modifier = {
				factor = 0.5
				wants_to_decrease_tolerance_halfling = yes
			}
		}
		add_years_of_income = -0.3
		event_target:halfling_food_festival_province = {
			add_province_modifier = {
				name = halfling_food_festival
				duration = 365
			}
		}
		medium_increase_of_halfling_tolerance_effect = yes
	}
	# An excellent tradition!
	option = {
		name = halfling_tolerance_events.6.b
		ai_chance = {
			factor = 50
		}
		event_target:halfling_food_festival_province = {
			add_province_modifier = {
				name = halfling_food_festival
				duration = 365
			}
		}
		small_increase_of_halfling_tolerance_effect = yes
	}
	# Damn gluttons
	option = {
		name = halfling_tolerance_events.6.c
		ai_chance = {
			factor = 50
			modifier = {
				factor = 0.5
				wants_to_increase_tolerance_halfling = yes
			}
		}
		medium_decrease_of_halfling_tolerance_effect = yes
	}
	# Invite the court to attend
	option = {
		name = halfling_tolerance_events.6.e
		ai_chance = {
			factor = 50
			modifier = {
				factor = 0.1
				wants_to_decrease_tolerance_halfling = yes
			}
		}
		trigger = {
			OR = {
				ruler_has_personality = drunkard_personality
				ruler_has_personality = free_thinker_personality
			}
		}
		highlight = yes
						event_target:halfling_food_festival_province = {
			add_province_modifier = {
				name = halfling_food_festival
				duration = 365
			}
		}
		largest_increase_of_halfling_tolerance_effect = yes
		add_prestige = -10
	}
}

# Halfling overpopulation - there do be a lot of them
country_event = {
	id = halfling_tolerance_events.7
	title = halfling_tolerance_events.7.t
	desc = halfling_tolerance_events.7.d
	picture = CITY_VIEW_eventPicture
	GOTO = halfling_overpopulated_province

	is_triggered_only = yes
		
	immediate = {
		hidden_effect = {
			random_owned_province = {
				limit = {
					has_large_halfling_minority_trigger = yes
				}
				save_event_target_as = halfling_overpopulated_province
			}
			random_owned_province = {
				limit = {
					has_large_halfling_minority_trigger = yes
					development = 12
				}
				save_event_target_as = halfling_overpopulated_province
			}
			random_owned_province = {
				limit = {
					has_halfling_majority_trigger = yes
				}
				save_event_target_as = halfling_overpopulated_province
			}
			random_owned_province = {
				limit = {
					has_halfling_majority_trigger = yes
					development = 12
				}
				save_event_target_as = halfling_overpopulated_province
			}
			event_target:halfling_overpopulated_province = {
				random_neighbor_province = {
					save_event_target_as = halfling_move_to_province
				}
				random_neighbor_province = {
					limit = { owned_by = ROOT }
					save_event_target_as = halfling_move_to_province
				}
				random_neighbor_province = {
					limit = {
						NOT = { has_halfling_majority_trigger = yes }
						owned_by = ROOT
					}
					save_event_target_as = halfling_move_to_province
				}
				random_neighbor_province = {
					limit = {
						NOT = { has_halfling_majority_trigger = yes }
						NOT = { has_large_halfling_minority_trigger = yes }
						owned_by = ROOT
					}
					save_event_target_as = halfling_move_to_province
				}
				random_neighbor_province = {
					limit = {
						NOT = {
							has_any_halfling_pop_trigger = yes
						}
						owned_by = ROOT
					}
					save_event_target_as = halfling_move_to_province
				}
				random_neighbor_province = {
					limit = {
						NOT = { has_any_halfling_pop_trigger = yes }
						NOT = { development = 12 }
						owned_by = ROOT
					}
					save_event_target_as = halfling_move_to_province
				}
			}
		}
	}

	# Help them move
	option = {
		name = halfling_tolerance_events.7.a
		ai_chance = {
			factor = 50
		}
		add_years_of_income = -0.4
		medium_increase_of_halfling_tolerance_effect = yes
		event_target:halfling_overpopulated_province = {
			if = {
				limit = { base_tax = 2 }
				random = {
					chance = 50
					add_base_tax = -1
				}
				event_target:halfling_move_to_province = {
					add_base_tax = 1
				}
			}
			if = {
				limit = { base_manpower = 2 }
				random = {
					chance = 50
					add_base_manpower = -1
				}
				event_target:halfling_move_to_province = {
					add_base_manpower = 1
				}
			}
		}
		event_target:halfling_move_to_province = {
			add_halfling_minority_size_effect = yes
		}
	}
	# Cool
	option = {
		name = halfling_tolerance_events.7.b
		ai_chance = {
			factor = 50
		}
		small_increase_of_halfling_tolerance_effect = yes
		event_target:halfling_overpopulated_province = {
			if = {
				limit = { base_tax = 2 }
				add_base_tax = -1
				event_target:halfling_move_to_province = {
					add_base_tax = 1
				}
			}
			if = {
				limit = { base_manpower = 2 }
				add_base_manpower = -1
				event_target:halfling_move_to_province = {
					add_base_manpower = 1
				}
			}
		}
		event_target:halfling_move_to_province = {
			add_halfling_minority_size_effect = yes
		}
	}
	# Bar them from moving
	option = {
		name = halfling_tolerance_events.7.c
		ai_chance = {
			factor = 50
		}
		small_decrease_of_halfling_tolerance_effect = yes
	}
}

# Cheap workers
country_event = {
	id = halfling_tolerance_events.8
	title = halfling_tolerance_events.8.t
	desc = halfling_tolerance_events.8.d
	picture = CITY_DEVELOPMENT_eventPicture
	GOTO = cheap_halfling_labour_province

	is_triggered_only = yes
	
	immediate = {
		hidden_effect = {
			random_owned_province = {
				limit = {
					has_halfling_minority_trigger = yes
					NOT = { has_province_modifier = cheap_halfling_labour }	
				}
				save_event_target_as = cheap_halfling_labour_province
			}
		}
	}
	
	# Just pay them a better wage then
	option = {
		name = halfling_tolerance_events.8.a
		ai_chance = {
			factor = 50
			modifier = {
				factor = 0.5
				NOT = { years_of_income = 0.3 }
			}
			modifier = {
				factor = 0.8
				NOT = { years_of_income = 0.6 }
			}
			modifier = {
				factor = 0.5
				wants_to_decrease_tolerance_halfling = yes
			}
		}
		add_years_of_income = -0.2
		medium_increase_of_halfling_tolerance_effect = yes
	}
	# It's a free market
	option = {
		name = halfling_tolerance_events.8.b
		ai_chance = {
			factor = 50
			modifier = {
				factor = 0.5
				wants_to_decrease_tolerance_halfling = yes
			}
		}
		small_increase_of_halfling_tolerance_effect = yes
		event_target:cheap_halfling_labour_province = {
			add_province_modifier = {
				name = cheap_halfling_labour_mad
				duration = 1825
			}
		}
	}
	# Cheap labour is great!
	option = {
		name = halfling_tolerance_events.8.c
		ai_chance = {
			factor = 50
			modifier = {
				factor = 0.5
				wants_to_increase_tolerance_halfling = yes
			}
		}
		small_decrease_of_halfling_tolerance_effect = yes
		event_target:cheap_halfling_labour_province = {
			add_province_modifier = {
				name = cheap_halfling_labour
				duration = 1825
			}
		}
	}
}