ruler_ynn_zodiac = {
	export_to_variable = {
		which = ynn_ruler_age #Ruler age when taking power
		value = trigger_value:ruler_age
	}
	
	export_to_variable = {
		which = ynn_current_year #Current Year
		value = trigger_value:is_year
	}
	subtract_variable = { which = ynn_current_year which = ynn_ruler_age }     #Birth Year
	set_variable = { game_start = 1443 }                            #Our starting point


	if = {
		limit = { check_variable = { ynn_current_year = 1444 } }     #If birth after or during 1444
		set_variable = { ruler_zodiac = 6 }                 #Will determine which blessing you get
		while = {
			limit = { NOT = { check_variable = { which = game_start which = ynn_current_year } } }
			change_variable = { game_start = 4 }
			change_variable = { ruler_zodiac = 1 }
			if = {
				limit = { check_variable = { ruler_zodiac = 17 } }
				set_variable = { ruler_zodiac = 1 }
			}
		}
		#If forest to apply the relevant modifier depending on varBlessings
		if = {
			limit = {
				check_variable = {
					which = ruler_zodiac
					value = 16
				}
			}
			add_ruler_modifier = {
				name = ynn_zodiac_ruler_16
				duration = -1
			}
		}
		else_if = {
			limit = {
				check_variable = {
					which = ruler_zodiac
					value = 15
				}
			}
			add_ruler_modifier = {
				name = ynn_zodiac_ruler_15
				duration = -1
			}
		}
		else_if = {
			limit = {
				check_variable = {
					which = ruler_zodiac
					value = 14
				}
			}
			add_ruler_modifier = {
				name = ynn_zodiac_ruler_14
				duration = -1
			}
		}
		else_if = {
			limit = {
				check_variable = {
					which = ruler_zodiac
					value = 13
				}
			}
			add_ruler_modifier = {
				name = ynn_zodiac_ruler_13
				duration = -1
			}
		}
		else_if = {
			limit = {
				check_variable = {
					which = ruler_zodiac
					value = 12
				}
			}
			add_ruler_modifier = {
				name = ynn_zodiac_ruler_12
				duration = -1
			}
		}
		else_if = {
			limit = {
				check_variable = {
					which = ruler_zodiac
					value = 11
				}
			}
			add_ruler_modifier = {
				name = ynn_zodiac_ruler_11
				duration = -1
			}
		}
		else_if = {
			limit = {
				check_variable = {
					which = ruler_zodiac
					value = 10
				}
			}
			add_ruler_modifier = {
				name = ynn_zodiac_ruler_10
				duration = -1
			}
		}
		else_if = {
			limit = {
				check_variable = {
					which = ruler_zodiac
					value = 9
				}
			}
			add_ruler_modifier = {
				name = ynn_zodiac_ruler_9
				duration = -1
			}
		}
		else_if = {
			limit = {
				check_variable = {
					which = ruler_zodiac
					value = 8
				}
			}
			add_ruler_modifier = {
				name = ynn_zodiac_ruler_8
				duration = -1
			}
		}
		else_if = {
			limit = {
				check_variable = {
					which = ruler_zodiac
					value = 7
				}
			}
			add_ruler_modifier = {
				name = ynn_zodiac_ruler_7
				duration = -1
			}
		}
		else_if = {
			limit = {
				check_variable = {
					which = ruler_zodiac
					value = 6
				}
			}
			add_ruler_modifier = {
				name = ynn_zodiac_ruler_6
				duration = -1
			}
		}
		else_if = {
			limit = {
				check_variable = {
					which = ruler_zodiac
					value = 5
				}
			}
			add_ruler_modifier = {
				name = ynn_zodiac_ruler_5
				duration = -1
			}
		}
		else_if = {
			limit = {
				check_variable = {
					which = ruler_zodiac
					value = 4
				}
			}
			add_ruler_modifier = {
				name = ynn_zodiac_ruler_4
				duration = -1
			}
		}
		else_if = {
			limit = {
				check_variable = {
					which = ruler_zodiac
					value = 3
				}
			}
			add_ruler_modifier = {
				name = ynn_zodiac_ruler_3
				duration = -1
			}
		}
		else_if = {
			limit = {
				check_variable = {
					which = ruler_zodiac
					value = 2
				}
			}
			add_ruler_modifier = {
				name = ynn_zodiac_ruler_2
				duration = -1
			}
		}
		else_if = {
			limit = {
				check_variable = {
					which = ruler_zodiac
					value = 1
				}
			}
			add_ruler_modifier = {
				name = ynn_zodiac_ruler_1
				duration = -1
			}
		}
	}
	else_if = { #Same thing as above but we count backward
		limit = { NOT = { check_variable = { ynn_current_year = 1444 } } }     #If birth before 1444
		set_variable = { ruler_zodiac = 7 }
		while = {
			limit = { check_variable = { which = game_start which = ynn_current_year } }
			subtract_variable = { game_start = 4 }
			subtract_variable = { ruler_zodiac = 1 }
			if = {
				limit = { NOT = { check_variable = { ruler_zodiac = 1 } } }
				set_variable = { ruler_zodiac = 16 }
			}
		}
		#If forest to apply the relevant modifier depending on varBlessings
		if = {
			limit = {
				check_variable = {
					which = ruler_zodiac
					value = 16
				}
			}
			add_ruler_modifier = {
				name = ynn_zodiac_ruler_16
				duration = -1
			}
		}
		else_if = {
			limit = {
				check_variable = {
					which = ruler_zodiac
					value = 15
				}
			}
			add_ruler_modifier = {
				name = ynn_zodiac_ruler_15
				duration = -1
			}
		}
		else_if = {
			limit = {
				check_variable = {
					which = ruler_zodiac
					value = 14
				}
			}
			add_ruler_modifier = {
				name = ynn_zodiac_ruler_14
				duration = -1
			}
		}
		else_if = {
			limit = {
				check_variable = {
					which = ruler_zodiac
					value = 13
				}
			}
			add_ruler_modifier = {
				name = ynn_zodiac_ruler_13
				duration = -1
			}
		}
		else_if = {
			limit = {
				check_variable = {
					which = ruler_zodiac
					value = 12
				}
			}
			add_ruler_modifier = {
				name = ynn_zodiac_ruler_12
				duration = -1
			}
		}
		else_if = {
			limit = {
				check_variable = {
					which = ruler_zodiac
					value = 11
				}
			}
			add_ruler_modifier = {
				name = ynn_zodiac_ruler_11
				duration = -1
			}
		}
		else_if = {
			limit = {
				check_variable = {
					which = ruler_zodiac
					value = 10
				}
			}
			add_ruler_modifier = {
				name = ynn_zodiac_ruler_10
				duration = -1
			}
		}
		else_if = {
			limit = {
				check_variable = {
					which = ruler_zodiac
					value = 9
				}
			}
			add_ruler_modifier = {
				name = ynn_zodiac_ruler_9
				duration = -1
			}
		}
		else_if = {
			limit = {
				check_variable = {
					which = ruler_zodiac
					value = 8
				}
			}
			add_ruler_modifier = {
				name = ynn_zodiac_ruler_8
				duration = -1
			}
		}
		else_if = {
			limit = {
				check_variable = {
					which = ruler_zodiac
					value = 7
				}
			}
			add_ruler_modifier = {
				name = ynn_zodiac_ruler_7
				duration = -1
			}
		}
		else_if = {
			limit = {
				check_variable = {
					which = ruler_zodiac
					value = 6
				}
			}
			add_ruler_modifier = {
				name = ynn_zodiac_ruler_6
				duration = -1
			}
		}
		else_if = {
			limit = {
				check_variable = {
					which = ruler_zodiac
					value = 5
				}
			}
			add_ruler_modifier = {
				name = ynn_zodiac_ruler_5
				duration = -1
			}
		}
		else_if = {
			limit = {
				check_variable = {
					which = ruler_zodiac
					value = 4
				}
			}
			add_ruler_modifier = {
				name = ynn_zodiac_ruler_4
				duration = -1
			}
		}
		else_if = {
			limit = {
				check_variable = {
					which = ruler_zodiac
					value = 3
				}
			}
			add_ruler_modifier = {
				name = ynn_zodiac_ruler_3
				duration = -1
			}
		}
		else_if = {
			limit = {
				check_variable = {
					which = ruler_zodiac
					value = 2
				}
			}
			add_ruler_modifier = {
				name = ynn_zodiac_ruler_2
				duration = -1
			}
		}
		else_if = {
			limit = {
				check_variable = {
					which = ruler_zodiac
					value = 1
				}
			}
			add_ruler_modifier = {
				name = ynn_zodiac_ruler_1
				duration = -1
			}
		}
	}
}

heir_ynn_zodiac = {
	export_to_variable = {
		which = ynn_heir_age #Ruler age when taking power
		value = trigger_value:heir_age
	}
	
	export_to_variable = {
		which = ynn_current_year #Current Year
		value = trigger_value:is_year
	}
	subtract_variable = { which = ynn_current_year which = ynn_heir_age }     #Birth Year
	set_variable = { game_start = 1443 }                            #Our starting point


	if = {
		limit = { check_variable = { ynn_current_year = 1444 } }     #If birth after or during 1444
		set_variable = { heir_zodiac = 6 }                 #Will determine which blessing you get
		while = {
			limit = { NOT = { check_variable = { which = game_start which = ynn_current_year } } }
			change_variable = { game_start = 4 }
			change_variable = { heir_zodiac = 1 }
			if = {
				limit = { check_variable = { heir_zodiac = 17 } }
				set_variable = { heir_zodiac = 1 }
			}
		}
		#If forest to apply the relevant modifier depending on varBlessings
		if = {
			limit = {
				check_variable = {
					which = heir_zodiac
					value = 16
				}
			}
			add_ruler_modifier = {
				name = ynn_zodiac_heir_16
				duration = -1
			}
		}
		else_if = {
			limit = {
				check_variable = {
					which = heir_zodiac
					value = 15
				}
			}
			add_ruler_modifier = {
				name = ynn_zodiac_heir_15
				duration = -1
			}
		}
		else_if = {
			limit = {
				check_variable = {
					which = heir_zodiac
					value = 14
				}
			}
			add_ruler_modifier = {
				name = ynn_zodiac_heir_14
				duration = -1
			}
		}
		else_if = {
			limit = {
				check_variable = {
					which = heir_zodiac
					value = 13
				}
			}
			add_ruler_modifier = {
				name = ynn_zodiac_heir_13
				duration = -1
			}
		}
		else_if = {
			limit = {
				check_variable = {
					which = heir_zodiac
					value = 12
				}
			}
			add_ruler_modifier = {
				name = ynn_zodiac_heir_12
				duration = -1
			}
		}
		else_if = {
			limit = {
				check_variable = {
					which = heir_zodiac
					value = 11
				}
			}
			add_ruler_modifier = {
				name = ynn_zodiac_heir_11
				duration = -1
			}
		}
		else_if = {
			limit = {
				check_variable = {
					which = heir_zodiac
					value = 10
				}
			}
			add_ruler_modifier = {
				name = ynn_zodiac_heir_10
				duration = -1
			}
		}
		else_if = {
			limit = {
				check_variable = {
					which = heir_zodiac
					value = 9
				}
			}
			add_ruler_modifier = {
				name = ynn_zodiac_heir_9
				duration = -1
			}
		}
		else_if = {
			limit = {
				check_variable = {
					which = heir_zodiac
					value = 8
				}
			}
			add_ruler_modifier = {
				name = ynn_zodiac_heir_8
				duration = -1
			}
		}
		else_if = {
			limit = {
				check_variable = {
					which = heir_zodiac
					value = 7
				}
			}
			add_ruler_modifier = {
				name = ynn_zodiac_heir_7
				duration = -1
			}
		}
		else_if = {
			limit = {
				check_variable = {
					which = heir_zodiac
					value = 6
				}
			}
			add_ruler_modifier = {
				name = ynn_zodiac_heir_6
				duration = -1
			}
		}
		else_if = {
			limit = {
				check_variable = {
					which = heir_zodiac
					value = 5
				}
			}
			add_ruler_modifier = {
				name = ynn_zodiac_heir_5
				duration = -1
			}
		}
		else_if = {
			limit = {
				check_variable = {
					which = heir_zodiac
					value = 4
				}
			}
			add_ruler_modifier = {
				name = ynn_zodiac_heir_4
				duration = -1
			}
		}
		else_if = {
			limit = {
				check_variable = {
					which = heir_zodiac
					value = 3
				}
			}
			add_ruler_modifier = {
				name = ynn_zodiac_heir_3
				duration = -1
			}
		}
		else_if = {
			limit = {
				check_variable = {
					which = heir_zodiac
					value = 2
				}
			}
			add_ruler_modifier = {
				name = ynn_zodiac_heir_2
				duration = -1
			}
		}
		else_if = {
			limit = {
				check_variable = {
					which = heir_zodiac
					value = 1
				}
			}
			add_ruler_modifier = {
				name = ynn_zodiac_heir_1
				duration = -1
			}
		}
	}
	else_if = { #Same thing as above but we count backward
		limit = { NOT = { check_variable = { ynn_current_year = 1444 } } }     #If birth before 1444
		set_variable = { heir_zodiac = 7 }
		while = {
			limit = { check_variable = { which = game_start which = ynn_current_year } }
			subtract_variable = { game_start = 4 }
			subtract_variable = { heir_zodiac = 1 }
			if = {
				limit = { NOT = { check_variable = { heir_zodiac = 1 } } }
				set_variable = { heir_zodiac = 16 }
			}
		}
		#If forest to apply the relevant modifier depending on varBlessings
		if = {
			limit = {
				check_variable = {
					which = heir_zodiac
					value = 16
				}
			}
			add_ruler_modifier = {
				name = ynn_zodiac_heir_16
				duration = -1
			}
		}
		else_if = {
			limit = {
				check_variable = {
					which = heir_zodiac
					value = 15
				}
			}
			add_ruler_modifier = {
				name = ynn_zodiac_heir_15
				duration = -1
			}
		}
		else_if = {
			limit = {
				check_variable = {
					which = heir_zodiac
					value = 14
				}
			}
			add_ruler_modifier = {
				name = ynn_zodiac_heir_14
				duration = -1
			}
		}
		else_if = {
			limit = {
				check_variable = {
					which = heir_zodiac
					value = 13
				}
			}
			add_ruler_modifier = {
				name = ynn_zodiac_heir_13
				duration = -1
			}
		}
		else_if = {
			limit = {
				check_variable = {
					which = heir_zodiac
					value = 12
				}
			}
			add_ruler_modifier = {
				name = ynn_zodiac_heir_12
				duration = -1
			}
		}
		else_if = {
			limit = {
				check_variable = {
					which = heir_zodiac
					value = 11
				}
			}
			add_ruler_modifier = {
				name = ynn_zodiac_heir_11
				duration = -1
			}
		}
		else_if = {
			limit = {
				check_variable = {
					which = heir_zodiac
					value = 10
				}
			}
			add_ruler_modifier = {
				name = ynn_zodiac_heir_10
				duration = -1
			}
		}
		else_if = {
			limit = {
				check_variable = {
					which = heir_zodiac
					value = 9
				}
			}
			add_ruler_modifier = {
				name = ynn_zodiac_heir_9
				duration = -1
			}
		}
		else_if = {
			limit = {
				check_variable = {
					which = heir_zodiac
					value = 8
				}
			}
			add_ruler_modifier = {
				name = ynn_zodiac_heir_8
				duration = -1
			}
		}
		else_if = {
			limit = {
				check_variable = {
					which = heir_zodiac
					value = 7
				}
			}
			add_ruler_modifier = {
				name = ynn_zodiac_heir_7
				duration = -1
			}
		}
		else_if = {
			limit = {
				check_variable = {
					which = heir_zodiac
					value = 6
				}
			}
			add_ruler_modifier = {
				name = ynn_zodiac_heir_6
				duration = -1
			}
		}
		else_if = {
			limit = {
				check_variable = {
					which = heir_zodiac
					value = 5
				}
			}
			add_ruler_modifier = {
				name = ynn_zodiac_heir_5
				duration = -1
			}
		}
		else_if = {
			limit = {
				check_variable = {
					which = heir_zodiac
					value = 4
				}
			}
			add_ruler_modifier = {
				name = ynn_zodiac_heir_4
				duration = -1
			}
		}
		else_if = {
			limit = {
				check_variable = {
					which = heir_zodiac
					value = 3
				}
			}
			add_ruler_modifier = {
				name = ynn_zodiac_heir_3
				duration = -1
			}
		}
		else_if = {
			limit = {
				check_variable = {
					which = heir_zodiac
					value = 2
				}
			}
			add_ruler_modifier = {
				name = ynn_zodiac_heir_2
				duration = -1
			}
		}
		else_if = {
			limit = {
				check_variable = {
					which = heir_zodiac
					value = 1
				}
			}
			add_ruler_modifier = {
				name = ynn_zodiac_heir_1
				duration = -1
			}
		}
	}
}

yrw_iosahar_liberty_ally_1 = {
	if = {
		limit = { has_country_flag = yrw_1a }
		if = {
			limit = {
				overlord = { has_country_flag = yrw_1a }
			}
			add_liberty_desire = -5
		}
		else = { add_liberty_desire = 5 }
	}
	else_if = {
		limit = { has_country_flag = yrw_1b }
		if = {
			limit = {
				overlord = { has_country_flag = yrw_1b }
			}
			add_liberty_desire = -5
		}
		else = { add_liberty_desire = 5 }
	}
}

yrw_iosahar_liberty_opposition_1 = {
	if = {
		limit = { has_country_flag = yrw_1a }
		if = {
			limit = {
				overlord = { has_country_flag = yrw_1a }
			}
			add_liberty_desire = 5
		}
		else = { add_liberty_desire = -5 }
	}
	else_if = {
		limit = { has_country_flag = yrw_1b }
		if = {
			limit = {
				overlord = { has_country_flag = yrw_1b }
			}
			add_liberty_desire = 5
		}
		else = { add_liberty_desire = -5 }
	}
}

yrw_iosahar_liberty_ally_2 = {
	if = {
		limit = { has_country_flag = yrw_2a }
		if = {
			limit = {
				overlord = { has_country_flag = yrw_2a }
			}
			add_liberty_desire = -5
		}
		else = { add_liberty_desire = 5 }
	}
	else_if = {
		limit = { has_country_flag = yrw_2b }
		if = {
			limit = {
				overlord = { has_country_flag = yrw_2b }
			}
			add_liberty_desire = -5
		}
		else = { add_liberty_desire = 5 }
	}
}

yrw_iosahar_liberty_opposition_2 = {
	if = {
		limit = { has_country_flag = yrw_2a }
		if = {
			limit = {
				overlord = { has_country_flag = yrw_2a }
			}
			add_liberty_desire = 5
		}
		else = { add_liberty_desire = -5 }
	}
	else_if = {
		limit = { has_country_flag = yrw_2b }
		if = {
			limit = {
				overlord = { has_country_flag = yrw_2b }
			}
			add_liberty_desire = 5
		}
		else = { add_liberty_desire = -5 }
	}
}

yrw_iosahar_liberty_ally_3 = {
	if = {
		limit = { has_country_flag = yrw_3a }
		if = {
			limit = {
				overlord = { has_country_flag = yrw_3a }
			}
			add_liberty_desire = -5
		}
		else = { add_liberty_desire = 5 }
	}
	else_if = {
		limit = { has_country_flag = yrw_3b }
		if = {
			limit = {
				overlord = { has_country_flag = yrw_3b }
			}
			add_liberty_desire = -5
		}
		else = { add_liberty_desire = 5 }
	}
}

yrw_iosahar_liberty_opposition_3 = {
	if = {
		limit = { has_country_flag = yrw_3a }
		if = {
			limit = {
				overlord = { has_country_flag = yrw_3a }
			}
			add_liberty_desire = 5
		}
		else = { add_liberty_desire = -5 }
	}
	else_if = {
		limit = { has_country_flag = yrw_3b }
		if = {
			limit = {
				overlord = { has_country_flag = yrw_3b }
			}
			add_liberty_desire = 5
		}
		else = { add_liberty_desire = -5 }
	}
}

yrw_iosahar_liberty_ally_4 = {
	if = {
		limit = { has_country_flag = yrw_4a }
		if = {
			limit = {
				overlord = { has_country_flag = yrw_4a }
			}
			add_liberty_desire = -5
		}
		else = { add_liberty_desire = 5 }
	}
	else_if = {
		limit = { has_country_flag = yrw_4b }
		if = {
			limit = {
				overlord = { has_country_flag = yrw_4b }
			}
			add_liberty_desire = -5
		}
		else = { add_liberty_desire = 5 }
	}
}

yrw_iosahar_liberty_opposition_4 = {
	if = {
		limit = { has_country_flag = yrw_4a }
		if = {
			limit = {
				overlord = { has_country_flag = yrw_4a }
			}
			add_liberty_desire = 5
		}
		else = { add_liberty_desire = -5 }
	}
	else_if = {
		limit = { has_country_flag = yrw_4b }
		if = {
			limit = {
				overlord = { has_country_flag = yrw_4b }
			}
			add_liberty_desire = 5
		}
		else = { add_liberty_desire = -5 }
	}
}

clear_ynn_zodiacs_effect = {
	remove_country_modifier = ynn_zodiac_ruler_1
	remove_country_modifier = ynn_zodiac_ruler_2
	remove_country_modifier = ynn_zodiac_ruler_3
	remove_country_modifier = ynn_zodiac_ruler_4
	remove_country_modifier = ynn_zodiac_ruler_5
	remove_country_modifier = ynn_zodiac_ruler_6
	remove_country_modifier = ynn_zodiac_ruler_7
	remove_country_modifier = ynn_zodiac_ruler_8
	remove_country_modifier = ynn_zodiac_ruler_9
	remove_country_modifier = ynn_zodiac_ruler_10
	remove_country_modifier = ynn_zodiac_ruler_11
	remove_country_modifier = ynn_zodiac_ruler_12
	remove_country_modifier = ynn_zodiac_ruler_13
	remove_country_modifier = ynn_zodiac_ruler_14
	remove_country_modifier = ynn_zodiac_ruler_15
	remove_country_modifier = ynn_zodiac_ruler_16
	remove_country_modifier = ynn_zodiac_heir_1
	remove_country_modifier = ynn_zodiac_heir_2
	remove_country_modifier = ynn_zodiac_heir_3
	remove_country_modifier = ynn_zodiac_heir_4
	remove_country_modifier = ynn_zodiac_heir_5
	remove_country_modifier = ynn_zodiac_heir_6
	remove_country_modifier = ynn_zodiac_heir_7
	remove_country_modifier = ynn_zodiac_heir_8
	remove_country_modifier = ynn_zodiac_heir_9
	remove_country_modifier = ynn_zodiac_heir_10
	remove_country_modifier = ynn_zodiac_heir_11
	remove_country_modifier = ynn_zodiac_heir_12
	remove_country_modifier = ynn_zodiac_heir_13
	remove_country_modifier = ynn_zodiac_heir_14
	remove_country_modifier = ynn_zodiac_heir_15
	remove_country_modifier = ynn_zodiac_heir_16
}

clear_ynn_debate_flags_effect = {
	clr_country_flag = yrw_debate_cheat
	clr_country_flag = yrw_overlord_debating
	clr_country_flag = yrw_debate_1
	clr_country_flag = yrw_debate_2
	clr_country_flag = yrw_debate_3
	clr_country_flag = yrw_debate_4
	clr_country_flag = yrw_solo_debate
	clr_country_flag = yrw_solo_debate_2
	clr_country_flag = yrw_solo_debate_3
	clr_country_flag = yrw_solo_debate_4
	clr_country_flag = force_yrw_1b
	clr_country_flag = force_yrw_1a
	clr_country_flag = force_yrw_2b
	clr_country_flag = force_yrw_2a
	clr_country_flag = force_yrw_3b
	clr_country_flag = force_yrw_3a
	clr_country_flag = force_yrw_4b
	clr_country_flag = force_yrw_4a
	clr_country_flag = yrw_1b
	clr_country_flag = yrw_1a
	clr_country_flag = yrw_2b
	clr_country_flag = yrw_2a
	clr_country_flag = yrw_3b
	clr_country_flag = yrw_3a
	clr_country_flag = yrw_4b
	clr_country_flag = yrw_4a
}

award_ynn_reform_bonuses_effect = {
	if = {
		limit = { has_country_flag = yrw_1a_reform }
		add_country_modifier = {
			name = yrw_1a
			duration = -1
			hidden = yes
		}
	}
	if = {
		limit = { has_country_flag = yrw_1b_reform }
		add_country_modifier = {
			name = yrw_1b
			duration = -1
			hidden = yes
		}
	}
	if = {
		limit = { has_country_flag = yrw_2a_reform }
		add_country_modifier = {
			name = yrw_2a
			duration = -1
			hidden = yes
		}
	}
	if = {
		limit = { has_country_flag = yrw_2b_reform }
		add_country_modifier = {
			name = yrw_2b
			duration = -1
			hidden = yes
		}
	}
	if = {
		limit = { has_country_flag = yrw_3a_reform }
		add_country_modifier = {
			name = yrw_3a
			duration = -1
			hidden = yes
		}
	}
	if = {
		limit = { has_country_flag = yrw_3b_reform }
		add_country_modifier = {
			name = yrw_3b
			duration = -1
			hidden = yes
		}
	}
	if = {
		limit = { has_country_flag = yrw_4a_reform }
		add_country_modifier = {
			name = yrw_4a
			duration = -1
			hidden = yes
		}
	}
	if = {
		limit = { has_country_flag = yrw_4b_reform }
		add_country_modifier = {
			name = yrw_4b
			duration = -1
			hidden = yes
		}
	}
}

clear_ynn_reform_bonuses_effect = {
	remove_country_modifier = yrw_1a
	remove_country_modifier = yrw_1b
	remove_country_modifier = yrw_2a
	remove_country_modifier = yrw_2b
	remove_country_modifier = yrw_3a
	remove_country_modifier = yrw_3b
	remove_country_modifier = yrw_4a
	remove_country_modifier = yrw_4b
}

ynnic_setup_effect = {
	#Ynnic Diplomacy and Dark Ages debuff
	if = {
		limit = {
			religion = ynn_river_worship
		}
		if = {
			limit = {
				NOT = {
					has_reform = malacnar_monarchy
					has_reform = malacnar_monarchy_reformed
					has_reform = malacnar_republic_reform
				}
			}
			add_country_modifier = {
				name = ynn_diplo
				duration = -1
			}
		}
		if = {
			limit = {
				NOT = { has_dlc = "El Dorado" }
			}
			add_country_modifier = {
				name = ynn_dark_ages
				duration = -1
				hidden = yes
			}
		}
	}
}